%!PS-Adobe-3.0 EPSF-3.0
%%Creator: cairo 1.17.4 (https://cairographics.org)
%%CreationDate: Thu Sep 30 19:31:34 2021
%%Pages: 1
%%DocumentData: Clean7Bit
%%LanguageLevel: 2
%%BoundingBox: 291 190 338 230
%%EndComments
%%BeginProlog
50 dict begin
/q { gsave } bind def
/Q { grestore } bind def
/cm { 6 array astore concat } bind def
/w { setlinewidth } bind def
/J { setlinecap } bind def
/j { setlinejoin } bind def
/M { setmiterlimit } bind def
/d { setdash } bind def
/m { moveto } bind def
/l { lineto } bind def
/c { curveto } bind def
/h { closepath } bind def
/re { exch dup neg 3 1 roll 5 3 roll moveto 0 rlineto
      0 exch rlineto 0 rlineto closepath } bind def
/S { stroke } bind def
/f { fill } bind def
/f* { eofill } bind def
/n { newpath } bind def
/W { clip } bind def
/W* { eoclip } bind def
/BT { } bind def
/ET { } bind def
/BDC { mark 3 1 roll /BDC pdfmark } bind def
/EMC { mark /EMC pdfmark } bind def
/cairo_store_point { /cairo_point_y exch def /cairo_point_x exch def } def
/Tj { show currentpoint cairo_store_point } bind def
/TJ {
  {
    dup
    type /stringtype eq
    { show } { -0.001 mul 0 cairo_font_matrix dtransform rmoveto } ifelse
  } forall
  currentpoint cairo_store_point
} bind def
/cairo_selectfont { cairo_font_matrix aload pop pop pop 0 0 6 array astore
    cairo_font exch selectfont cairo_point_x cairo_point_y moveto } bind def
/Tf { pop /cairo_font exch def /cairo_font_matrix where
      { pop cairo_selectfont } if } bind def
/Td { matrix translate cairo_font_matrix matrix concatmatrix dup
      /cairo_font_matrix exch def dup 4 get exch 5 get cairo_store_point
      /cairo_font where { pop cairo_selectfont } if } bind def
/Tm { 2 copy 8 2 roll 6 array astore /cairo_font_matrix exch def
      cairo_store_point /cairo_font where { pop cairo_selectfont } if } bind def
/g { setgray } bind def
/rg { setrgbcolor } bind def
/d1 { setcachedevice } bind def
/cairo_data_source {
  CairoDataIndex CairoData length lt
    { CairoData CairoDataIndex get /CairoDataIndex CairoDataIndex 1 add def }
    { () } ifelse
} def
/cairo_flush_ascii85_file { cairo_ascii85_file status { cairo_ascii85_file flushfile } if } def
/cairo_image { image cairo_flush_ascii85_file } def
/cairo_imagemask { imagemask cairo_flush_ascii85_file } def
%%EndProlog
%%BeginSetup
%%EndSetup
%%Page: 1 1
%%BeginPageSetup
%%PageBoundingBox: 291 190 338 230
%%EndPageSetup
q 291 190 47 40 rectclip
1 0 0 -1 0 420 cm q
0 g
0.525 w
1 J
1 j
[] 0.0 d
4 M q 1 0 0 1 0 0 cm
312.75 205.5 m 312.75 213.75 l S Q
0.75 w
q 1 0 0 1 0 0 cm
312.562 213.75 m 291.75 213.75 l S Q
q 1 0 0 1 0 0 cm
318 205.949 m 318 191.25 l S Q
0.525 w
q 1 0 0 1 0 0 cm
314.25 206.062 m 318 206.062 l S Q
0.75 w
q 1 0 0 1 0 0 cm
318 214.051 m 318 228.75 l S Q
0.525 w
q 1 0 0 1 0 0 cm
314.25 213.938 m 318 213.938 l S Q
q 1 0 0 1 0 0 cm
318 213.938 m 318 210 l S Q
0.75 w
q 1 0 0 1 0 0 cm
318.301 213.938 m 318.301 214.102 318.164 214.238 318 214.238 c 317.836
 214.238 317.699 214.102 317.699 213.938 c 317.699 213.773 317.836 213.637
 318 213.637 c 318.164 213.637 318.301 213.773 318.301 213.938 c h
318.301 213.938 m S Q
0.525 w
q 1 0 0 1 0 0 cm
314.25 210 m 318 210 l S Q
317.844 210 m 316.582 210.523 l 316.582 209.477 l h
317.844 210 m f*
0.315 w
0 J
0 j
q 1 0 0 1 0 0 cm
317.844 210 m 316.582 210.523 l 316.582 209.477 l h
317.844 210 m S Q
0.525 w
1 J
1 j
q 1 0 0 1 0 0 cm
314.25 204.75 m 314.25 207.375 l S Q
q 1 0 0 1 0 0 cm
314.25 208.688 m 314.25 211.312 l S Q
q 1 0 0 1 0 0 cm
314.25 212.625 m 314.25 215.25 l S Q
0.75 w
q 1 0 0 1 0 0 cm
322.5 210 m 322.5 214.141 319.141 217.5 315 217.5 c 310.859 217.5 307.5
 214.141 307.5 210 c 307.5 205.859 310.859 202.5 315 202.5 c 319.141 202.5
 322.5 205.859 322.5 210 c h
322.5 210 m S Q
305.828 212.32 m 305.871 212.387 305.984 212.5 306.016 212.5 c 306.047 
212.5 306.047 212.477 306.047 212.434 c 306.047 211.926 l 306.047 211.809
 306.055 211.797 306.246 211.797 c 306.246 211.703 l 306.137 211.703 305.977
 211.711 305.887 211.711 c 305.773 211.711 305.52 211.711 305.414 211.703
 c 305.414 211.797 l 305.512 211.797 l 305.773 211.797 305.781 211.828 305.781
 211.934 c 305.781 212.121 l 305.781 212.453 305.41 212.477 305.324 212.477
 c 305.137 212.477 304.551 212.375 304.551 211.5 c 304.551 210.621 305.133
 210.523 305.309 210.523 c 305.625 210.523 305.895 210.785 305.949 211.219
 c 305.957 211.262 305.957 211.27 306 211.27 c 306.047 211.27 306.047 211.262
 306.047 211.199 c 306.047 210.504 l 306.047 210.453 306.047 210.43 306.012
 210.43 c 306 210.43 305.988 210.43 305.965 210.469 c 305.82 210.684 l 305.723
 210.594 305.566 210.43 305.273 210.43 c 304.727 210.43 304.254 210.895 
304.254 211.5 c 304.254 212.105 304.723 212.57 305.281 212.57 c 305.496 
212.57 305.73 212.492 305.828 212.32 c h
305.828 212.32 m f
318.887 200.371 m 318.887 200.461 l 318.961 200.461 l 319.188 200.461 319.191
 200.496 319.191 200.602 c 319.191 202.148 l 319.191 202.254 319.188 202.289
 318.961 202.289 c 318.887 202.289 l 318.887 202.379 l 319.965 202.379 l
 320.457 202.379 320.863 201.945 320.863 201.395 c 320.863 200.832 320.469
 200.371 319.965 200.371 c h
319.586 202.289 m 319.449 202.289 319.445 202.27 319.445 202.172 c 319.445
 200.582 l 319.445 200.48 319.449 200.461 319.586 200.461 c 319.883 200.461
 l 320.066 200.461 320.27 200.527 320.418 200.734 c 320.547 200.91 320.57
 201.164 320.57 201.395 c 320.57 201.715 320.512 201.895 320.406 202.039
 c 320.348 202.117 320.18 202.289 319.887 202.289 c h
319.586 202.289 m f
320.086 218.488 m 319.711 218.398 l 319.523 218.352 319.414 218.195 319.414
 218.027 c 319.414 217.82 319.57 217.641 319.801 217.641 c 320.289 217.641
 320.355 218.121 320.371 218.25 c 320.379 218.27 320.379 218.289 320.41 
218.289 c 320.445 218.289 320.445 218.273 320.445 218.219 c 320.445 217.629
 l 320.445 217.578 320.445 217.555 320.414 217.555 c 320.395 217.555 320.391
 217.559 320.371 217.598 c 320.266 217.762 l 320.18 217.676 320.059 217.555
 319.797 217.555 c 319.469 217.555 319.227 217.812 319.227 218.129 c 319.227
 218.371 319.383 218.59 319.609 218.668 c 319.641 218.676 319.793 218.711
 320 218.762 c 320.078 218.781 320.164 218.805 320.25 218.91 c 320.309 218.988
 320.34 219.086 320.34 219.184 c 320.34 219.391 320.191 219.602 319.945 
219.602 c 319.859 219.602 319.637 219.59 319.48 219.445 c 319.309 219.285
 319.301 219.102 319.301 218.992 c 319.293 218.961 319.27 218.961 319.262
 218.961 c 319.227 218.961 319.227 218.984 319.227 219.035 c 319.227 219.625
 l 319.227 219.676 319.227 219.695 319.258 219.695 c 319.277 219.695 319.281
 219.691 319.301 219.656 c 319.301 219.652 319.309 219.645 319.406 219.488
 c 319.496 219.59 319.688 219.695 319.949 219.695 c 320.289 219.695 320.523
 219.41 320.523 219.082 c 320.523 218.789 320.332 218.547 320.086 218.488
 c h
320.086 218.488 m f
0.129412 0.482353 0.129412 rg
q 0 -1 1 0 0 0 cm
-202.5 326.25 m -207.352 327.965 -212.648 327.965 -217.5 326.25 c S Q
326.707 203.789 m 327.902 204.359 l 325.926 201.578 l 326.133 204.984 l
 h
326.707 203.789 m f*
0.176777 w
0 J
0 j
q 0.353553 1 -1 0.353553 0 0 cm
283.82 -226.362 m 284.703 -227.245 l 281.609 -226.362 l 284.702 -225.475
 l h
283.82 -226.362 m S Q
332.957 208.738 m 332.957 208.438 332.809 208.352 332.715 208.352 c 332.574
 208.352 332.438 208.5 332.438 208.621 c 332.438 208.688 332.465 208.723
 332.523 208.785 c 332.645 208.895 332.715 209.035 332.715 209.234 c 332.715
 209.465 332.379 210.727 331.738 210.727 c 331.453 210.727 331.324 210.539
 331.324 210.242 c 331.324 209.941 331.48 209.535 331.645 209.078 c 331.688
 208.98 331.711 208.906 331.711 208.801 c 331.711 208.559 331.539 208.352
 331.262 208.352 c 330.746 208.352 330.535 209.156 330.535 209.199 c 330.535
 209.258 330.59 209.258 330.598 209.258 c 330.656 209.258 330.656 209.242
 330.684 209.156 c 330.848 208.602 331.082 208.473 331.246 208.473 c 331.289
 208.473 331.383 208.473 331.383 208.645 c 331.383 208.785 331.324 208.938
 331.289 209.035 c 331.047 209.672 330.977 209.926 330.977 210.164 c 330.977
 210.762 331.461 210.848 331.711 210.848 c 332.637 210.848 332.957 209.023
 332.957 208.738 c h
332.957 208.738 m f
335.246 209.055 m 335.246 209.047 335.254 208.996 335.254 208.996 c 335.254
 208.969 335.246 208.938 335.195 208.938 c 335.117 208.938 334.797 208.969
 334.703 208.98 c 334.676 208.98 334.617 208.988 334.617 209.066 c 334.617
 209.117 334.676 209.117 334.719 209.117 c 334.902 209.117 334.902 209.152
 334.902 209.176 c 334.902 209.203 334.902 209.23 334.891 209.266 c 334.668
 210.145 l 334.59 210.016 334.461 209.91 334.27 209.91 c 333.777 209.91 
333.277 210.457 333.277 211.008 c 333.277 211.391 333.527 211.648 333.863
 211.648 c 334.07 211.648 334.254 211.535 334.41 211.379 c 334.477 211.613
 334.703 211.648 334.805 211.648 c 334.945 211.648 335.039 211.57 335.109
 211.449 c 335.195 211.293 335.246 211.078 335.246 211.062 c 335.246 211.008
 335.195 211.008 335.188 211.008 c 335.125 211.008 335.125 211.027 335.098
 211.129 c 335.047 211.32 334.98 211.547 334.812 211.547 c 334.719 211.547
 334.684 211.457 334.684 211.355 c 334.684 211.285 334.695 211.25 334.711
 211.199 c h
334.426 211.129 m 334.398 211.242 334.312 211.32 334.227 211.391 c 334.191
 211.426 334.035 211.547 333.871 211.547 c 333.727 211.547 333.586 211.441
 333.586 211.172 c 333.586 210.965 333.699 210.543 333.793 210.387 c 333.969
 210.074 334.168 210.023 334.27 210.023 c 334.539 210.023 334.617 210.316
 334.617 210.359 c 334.617 210.371 334.605 210.406 334.605 210.414 c h
334.426 211.129 m f
336.996 210.164 m 336.898 210.188 336.832 210.266 336.832 210.344 c 336.832
 210.438 336.91 210.473 336.961 210.473 c 337.004 210.473 337.152 210.449
 337.152 210.25 c 337.152 210 336.875 209.91 336.633 209.91 c 336.035 209.91
 335.926 210.359 335.926 210.473 c 335.926 210.621 336.012 210.715 336.062
 210.758 c 336.156 210.836 336.227 210.855 336.496 210.898 c 336.582 210.914
 336.824 210.957 336.824 211.148 c 336.824 211.215 336.777 211.363 336.625
 211.457 c 336.469 211.547 336.277 211.547 336.234 211.547 c 336.078 211.547
 335.863 211.512 335.77 211.379 c 335.898 211.363 335.984 211.27 335.984
 211.164 c 335.984 211.07 335.914 211.02 335.836 211.02 c 335.727 211.02
 335.613 211.113 335.613 211.277 c 335.613 211.512 335.855 211.648 336.227
 211.648 c 336.945 211.648 337.074 211.164 337.074 211.02 c 337.074 210.664
 336.684 210.594 336.539 210.57 c 336.504 210.559 336.406 210.543 336.383
 210.535 c 336.242 210.508 336.176 210.43 336.176 210.344 c 336.176 210.258
 336.242 210.152 336.328 210.094 c 336.434 210.031 336.562 210.023 336.633
 210.023 c 336.711 210.023 336.91 210.031 336.996 210.164 c h
336.996 210.164 m f
0.709139 w
1 J
1 j
q 1 0.344328 -0.344328 1 0 0 cm
349.683 101.317 m 347.388 102.127 344.884 102.126 342.589 101.315 c S Q
308.773 220.129 m 310.094 219.98 l 306.941 218.672 l 308.926 221.445 l 
h
308.773 220.129 m f*
0.146798 w
0 J
0 j
q 1 0.794616 -0.794616 1 0 0 cm
296.486 -15.464 m 297.223 -16.198 l 294.653 -15.464 l 297.22 -14.731 l 
h
296.486 -15.464 m S Q
309.18 224.332 m 309.18 224.031 309.031 223.945 308.938 223.945 c 308.797
 223.945 308.66 224.09 308.66 224.211 c 308.66 224.281 308.688 224.316 308.746
 224.375 c 308.867 224.488 308.938 224.629 308.938 224.828 c 308.938 225.059
 308.602 226.32 307.961 226.32 c 307.676 226.32 307.547 226.133 307.547 
225.836 c 307.547 225.535 307.699 225.129 307.867 224.672 c 307.91 224.574
 307.934 224.496 307.934 224.395 c 307.934 224.152 307.762 223.945 307.484
 223.945 c 306.965 223.945 306.758 224.75 306.758 224.793 c 306.758 224.852
 306.812 224.852 306.82 224.852 c 306.879 224.852 306.879 224.836 306.906
 224.75 c 307.07 224.195 307.305 224.066 307.469 224.066 c 307.512 224.066
 307.605 224.066 307.605 224.238 c 307.605 224.375 307.547 224.531 307.512
 224.629 c 307.27 225.266 307.199 225.516 307.199 225.758 c 307.199 226.355
 307.684 226.441 307.934 226.441 c 308.859 226.441 309.18 224.617 309.18
 224.332 c h
309.18 224.332 m f
311.312 225.781 m 311.332 225.73 311.332 225.715 311.332 225.703 c 311.332
 225.617 311.262 225.582 311.199 225.582 c 311.113 225.582 311.035 225.652
 311.02 225.73 c 310.961 225.625 310.828 225.504 310.621 225.504 c 310.148
 225.504 309.637 226.023 309.637 226.578 c 309.637 226.973 309.906 227.207
 310.227 227.207 c 310.406 227.207 310.57 227.121 310.707 227 c 310.621 
227.348 l 310.578 227.512 310.555 227.613 310.406 227.742 c 310.234 227.883
 310.07 227.883 309.973 227.883 c 309.801 227.883 309.75 227.871 309.68 
227.855 c 309.773 227.812 309.801 227.719 309.801 227.664 c 309.801 227.57
 309.73 227.527 309.656 227.527 c 309.543 227.527 309.43 227.613 309.43 
227.762 c 309.43 227.992 309.766 227.992 309.984 227.992 c 310.586 227.992
 310.84 227.684 310.898 227.469 c h
310.785 226.699 m 310.77 226.75 310.77 226.758 310.699 226.836 c 310.57
 227 310.379 227.105 310.234 227.105 c 310.043 227.105 309.949 226.93 309.949
 226.734 c 309.949 226.566 310.051 226.137 310.156 225.965 c 310.312 225.695
 310.492 225.617 310.621 225.617 c 310.898 225.617 310.969 225.902 310.969
 225.945 c 310.969 225.953 310.969 225.953 310.961 225.996 c h
310.785 226.699 m f
313.211 225.758 m 313.117 225.781 313.047 225.859 313.047 225.938 c 313.047
 226.031 313.125 226.066 313.18 226.066 c 313.223 226.066 313.367 226.043
 313.367 225.844 c 313.367 225.594 313.094 225.504 312.852 225.504 c 312.254
 225.504 312.141 225.953 312.141 226.066 c 312.141 226.215 312.227 226.309
 312.281 226.352 c 312.375 226.43 312.445 226.449 312.711 226.492 c 312.797
 226.508 313.039 226.551 313.039 226.742 c 313.039 226.809 312.996 226.957
 312.84 227.051 c 312.688 227.137 312.496 227.137 312.453 227.137 c 312.297
 227.137 312.082 227.105 311.984 226.973 c 312.117 226.957 312.203 226.863
 312.203 226.758 c 312.203 226.664 312.133 226.613 312.055 226.613 c 311.941
 226.613 311.832 226.707 311.832 226.871 c 311.832 227.105 312.074 227.242
 312.445 227.242 c 313.16 227.242 313.289 226.758 313.289 226.613 c 313.289
 226.258 312.902 226.188 312.754 226.164 c 312.719 226.152 312.625 226.137
 312.598 226.129 c 312.461 226.102 312.391 226.023 312.391 225.938 c 312.391
 225.852 312.461 225.746 312.547 225.688 c 312.652 225.625 312.781 225.617
 312.852 225.617 c 312.926 225.617 313.125 225.625 313.211 225.758 c h
313.211 225.758 m f
0.53033 w
1 J
1 j
q -1 1 -1 -1 0 0 cm
-46.445 -255.75 m -49.877 -254.537 -53.623 -254.537 -57.055 -255.75 c S Q
311.57 199.285 m 311.129 200.535 l 313.684 198.277 l 310.32 198.844 l h
311.57 199.285 m f*
0.169194 w
0 J
0 j
q -1 0.477592 -0.477592 -1 0 0 cm
-176.202 -283.438 m -175.357 -284.284 l -178.315 -283.439 l -175.356 -282.593
 l h
-176.202 -283.438 m S Q
300.023 197.309 m 300.023 197.008 299.875 196.918 299.781 196.918 c 299.645
 196.918 299.504 197.066 299.504 197.188 c 299.504 197.258 299.531 197.293
 299.59 197.352 c 299.711 197.465 299.781 197.602 299.781 197.801 c 299.781
 198.035 299.445 199.297 298.805 199.297 c 298.52 199.297 298.391 199.105
 298.391 198.812 c 298.391 198.508 298.547 198.102 298.711 197.645 c 298.754
 197.551 298.777 197.473 298.777 197.367 c 298.777 197.129 298.605 196.918
 298.328 196.918 c 297.812 196.918 297.605 197.723 297.605 197.766 c 297.605
 197.828 297.656 197.828 297.664 197.828 c 297.727 197.828 297.727 197.809
 297.75 197.723 c 297.914 197.172 298.148 197.039 298.312 197.039 c 298.355
 197.039 298.449 197.039 298.449 197.215 c 298.449 197.352 298.391 197.508
 298.355 197.602 c 298.113 198.242 298.043 198.492 298.043 198.734 c 298.043
 199.332 298.527 199.418 298.777 199.418 c 299.703 199.418 300.023 197.594
 300.023 197.309 c h
300.023 197.309 m f
302.312 197.625 m 302.312 197.617 302.324 197.562 302.324 197.562 c 302.324
 197.539 302.312 197.504 302.262 197.504 c 302.184 197.504 301.863 197.539
 301.77 197.547 c 301.742 197.547 301.684 197.555 301.684 197.633 c 301.684
 197.684 301.742 197.684 301.785 197.684 c 301.969 197.684 301.969 197.719
 301.969 197.746 c 301.969 197.773 301.969 197.797 301.961 197.832 c 301.734
 198.715 l 301.656 198.582 301.527 198.48 301.336 198.48 c 300.844 198.48
 300.344 199.023 300.344 199.578 c 300.344 199.957 300.594 200.219 300.93
 200.219 c 301.137 200.219 301.32 200.105 301.477 199.949 c 301.543 200.184
 301.77 200.219 301.875 200.219 c 302.012 200.219 302.105 200.141 302.176
 200.02 c 302.262 199.863 302.312 199.648 302.312 199.629 c 302.312 199.578
 302.262 199.578 302.254 199.578 c 302.191 199.578 302.191 199.594 302.168
 199.699 c 302.113 199.891 302.047 200.113 301.883 200.113 c 301.785 200.113
 301.754 200.027 301.754 199.922 c 301.754 199.855 301.762 199.82 301.777
 199.77 c h
301.492 199.699 m 301.469 199.812 301.379 199.891 301.293 199.957 c 301.258
 199.992 301.105 200.113 300.941 200.113 c 300.793 200.113 300.656 200.008
 300.656 199.742 c 300.656 199.535 300.766 199.109 300.863 198.957 c 301.035
 198.645 301.234 198.594 301.336 198.594 c 301.605 198.594 301.684 198.887
 301.684 198.93 c 301.684 198.938 301.676 198.973 301.676 198.98 c h
301.492 199.699 m f
304.453 198.758 m 304.469 198.703 304.469 198.688 304.469 198.68 c 304.469
 198.594 304.398 198.559 304.34 198.559 c 304.254 198.559 304.176 198.629
 304.156 198.703 c 304.098 198.602 303.969 198.48 303.762 198.48 c 303.285
 198.48 302.773 199 302.773 199.551 c 302.773 199.949 303.043 200.184 303.363
 200.184 c 303.543 200.184 303.707 200.098 303.848 199.977 c 303.762 200.32
 l 303.719 200.484 303.691 200.59 303.543 200.719 c 303.371 200.855 303.207
 200.855 303.113 200.855 c 302.938 200.855 302.887 200.848 302.82 200.832
 c 302.914 200.789 302.938 200.691 302.938 200.641 c 302.938 200.547 302.871
 200.504 302.793 200.504 c 302.68 200.504 302.566 200.59 302.566 200.734
 c 302.566 200.969 302.906 200.969 303.121 200.969 c 303.727 200.969 303.977
 200.656 304.035 200.441 c h
303.926 199.672 m 303.906 199.723 303.906 199.734 303.84 199.812 c 303.707
 199.977 303.52 200.078 303.371 200.078 c 303.18 200.078 303.086 199.906
 303.086 199.707 c 303.086 199.543 303.191 199.109 303.293 198.938 c 303.449
 198.672 303.629 198.594 303.762 198.594 c 304.035 198.594 304.105 198.879
 304.105 198.922 c 304.105 198.93 304.105 198.93 304.098 198.973 c h
303.926 199.672 m f
1 0 0 rg
0.75 w
1 J
1 j
q 0 1 -1 0 0 0 cm
220.312 -321.75 m 225.938 -321.75 l S Q
321.75 224.57 m 320.812 223.633 l 321.75 226.914 l 322.688 223.633 l h
321.75 224.57 m f*
0.1875 w
0 J
0 j
q 0 -1 1 0 0 0 cm
-224.57 321.75 m -223.633 320.812 l -226.914 321.75 l -223.633 322.688 
l h
-224.57 321.75 m S Q
325.148 221.07 m 325.148 220.957 325.07 220.871 324.949 220.871 c 324.797
 220.871 324.648 221.02 324.648 221.164 c 324.648 221.27 324.727 221.363
 324.855 221.363 c 324.984 221.363 325.148 221.234 325.148 221.07 c h
324.734 223.145 m 324.797 222.988 324.797 222.973 324.855 222.824 c 324.898
 222.711 324.926 222.633 324.926 222.531 c 324.926 222.289 324.754 222.082
 324.477 222.082 c 323.957 222.082 323.75 222.883 323.75 222.93 c 323.75
 222.988 323.801 222.988 323.809 222.988 c 323.871 222.988 323.871 222.973
 323.898 222.883 c 324.051 222.367 324.27 222.203 324.457 222.203 c 324.5
 222.203 324.598 222.203 324.598 222.375 c 324.598 222.496 324.555 222.609
 324.535 222.668 c 324.492 222.809 324.242 223.445 324.156 223.688 c 324.094
 223.828 324.027 224.008 324.027 224.129 c 324.027 224.387 324.215 224.578
 324.477 224.578 c 324.996 224.578 325.203 223.785 325.203 223.73 c 325.203
 223.672 325.148 223.672 325.133 223.672 c 325.082 223.672 325.082 223.688
 325.055 223.773 c 324.949 224.121 324.77 224.457 324.492 224.457 c 324.398
 224.457 324.355 224.406 324.355 224.277 c 324.355 224.137 324.391 224.059
 324.52 223.723 c h
324.734 223.145 m f
327.145 223.891 m 327.047 223.918 326.98 223.996 326.98 224.074 c 326.98
 224.168 327.059 224.203 327.109 224.203 c 327.152 224.203 327.297 224.176
 327.297 223.98 c 327.297 223.727 327.023 223.641 326.781 223.641 c 326.184
 223.641 326.07 224.09 326.07 224.203 c 326.07 224.352 326.16 224.445 326.211
 224.488 c 326.305 224.566 326.375 224.582 326.641 224.625 c 326.727 224.645
 326.969 224.688 326.969 224.879 c 326.969 224.945 326.926 225.094 326.773
 225.188 c 326.617 225.273 326.426 225.273 326.383 225.273 c 326.227 225.273
 326.012 225.242 325.918 225.109 c 326.047 225.094 326.133 225 326.133 224.895
 c 326.133 224.801 326.062 224.746 325.984 224.746 c 325.875 224.746 325.762
 224.844 325.762 225.008 c 325.762 225.242 326.004 225.379 326.375 225.379
 c 327.09 225.379 327.223 224.895 327.223 224.746 c 327.223 224.395 326.832
 224.324 326.684 224.297 c 326.652 224.289 326.555 224.273 326.531 224.266
 c 326.391 224.238 326.324 224.16 326.324 224.074 c 326.324 223.988 326.391
 223.883 326.477 223.824 c 326.582 223.762 326.711 223.754 326.781 223.754
 c 326.859 223.754 327.059 223.762 327.145 223.891 c h
327.145 223.891 m f
0.75 w
1 J
1 j
q -1 0 0 -1 0 0 cm
-293.438 -217.5 m -299.062 -217.5 l S Q
297.695 217.5 m 296.758 218.438 l 300.039 217.5 l 296.758 216.562 l h
297.695 217.5 m f*
0.1875 w
0 J
0 j
q -1 0 0 -1 0 0 cm
-297.695 -217.5 m -296.758 -218.438 l -300.039 -217.5 l -296.758 -216.562
 l h
-297.695 -217.5 m S Q
295.75 219.699 m 295.75 219.586 295.672 219.5 295.551 219.5 c 295.395 219.5
 295.25 219.648 295.25 219.793 c 295.25 219.898 295.328 219.992 295.457 
219.992 c 295.586 219.992 295.75 219.863 295.75 219.699 c h
295.336 221.773 m 295.395 221.617 295.395 221.602 295.457 221.453 c 295.5
 221.34 295.527 221.262 295.527 221.16 c 295.527 220.918 295.352 220.711
 295.074 220.711 c 294.559 220.711 294.352 221.512 294.352 221.555 c 294.352
 221.617 294.402 221.617 294.41 221.617 c 294.473 221.617 294.473 221.602
 294.496 221.512 c 294.652 220.996 294.867 220.832 295.059 220.832 c 295.102
 220.832 295.195 220.832 295.195 221.004 c 295.195 221.125 295.152 221.238
 295.137 221.297 c 295.094 221.434 294.844 222.074 294.758 222.316 c 294.695
 222.453 294.625 222.637 294.625 222.758 c 294.625 223.016 294.816 223.207
 295.074 223.207 c 295.594 223.207 295.801 222.41 295.801 222.359 c 295.801
 222.301 295.75 222.301 295.734 222.301 c 295.68 222.301 295.68 222.316 
295.656 222.402 c 295.551 222.75 295.371 223.086 295.094 223.086 c 295 223.086
 294.957 223.035 294.957 222.906 c 294.957 222.766 294.988 222.688 295.121
 222.352 c h
295.336 221.773 m f
298.133 222.547 m 298.148 222.496 298.148 222.477 298.148 222.469 c 298.148
 222.383 298.082 222.348 298.02 222.348 c 297.934 222.348 297.855 222.418
 297.84 222.496 c 297.777 222.391 297.648 222.27 297.441 222.27 c 296.965
 222.27 296.457 222.789 296.457 223.34 c 296.457 223.738 296.723 223.973
 297.043 223.973 c 297.227 223.973 297.391 223.887 297.527 223.766 c 297.441
 224.109 l 297.398 224.273 297.371 224.379 297.227 224.508 c 297.051 224.645
 296.887 224.645 296.793 224.645 c 296.621 224.645 296.57 224.637 296.5 
224.621 c 296.594 224.578 296.621 224.48 296.621 224.43 c 296.621 224.336
 296.551 224.293 296.473 224.293 c 296.359 224.293 296.25 224.379 296.25
 224.527 c 296.25 224.758 296.586 224.758 296.801 224.758 c 297.406 224.758
 297.656 224.449 297.719 224.23 c h
297.605 223.461 m 297.59 223.516 297.59 223.523 297.52 223.602 c 297.391
 223.766 297.199 223.867 297.051 223.867 c 296.863 223.867 296.766 223.695
 296.766 223.496 c 296.766 223.332 296.871 222.902 296.973 222.727 c 297.129
 222.461 297.312 222.383 297.441 222.383 c 297.719 222.383 297.785 222.668
 297.785 222.711 c 297.785 222.719 297.785 222.719 297.777 222.762 c h
297.605 223.461 m f
0.75 w
1 J
1 j
q 0 1 -1 0 0 0 cm
194.062 -321.75 m 199.688 -321.75 l S Q
321.75 198.32 m 320.812 197.383 l 321.75 200.664 l 322.688 197.383 l h
321.75 198.32 m f*
0.1875 w
0 J
0 j
q 0 -1 1 0 0 0 cm
-198.32 321.75 m -197.383 320.812 l -200.664 321.75 l -197.383 322.688 
l h
-198.32 321.75 m S Q
325.148 194.82 m 325.148 194.707 325.07 194.621 324.949 194.621 c 324.797
 194.621 324.648 194.77 324.648 194.914 c 324.648 195.02 324.727 195.113
 324.855 195.113 c 324.984 195.113 325.148 194.984 325.148 194.82 c h
324.734 196.895 m 324.797 196.738 324.797 196.723 324.855 196.574 c 324.898
 196.461 324.926 196.383 324.926 196.281 c 324.926 196.039 324.754 195.832
 324.477 195.832 c 323.957 195.832 323.75 196.633 323.75 196.68 c 323.75
 196.738 323.801 196.738 323.809 196.738 c 323.871 196.738 323.871 196.723
 323.898 196.633 c 324.051 196.117 324.27 195.953 324.457 195.953 c 324.5
 195.953 324.598 195.953 324.598 196.125 c 324.598 196.246 324.555 196.359
 324.535 196.418 c 324.492 196.559 324.242 197.195 324.156 197.438 c 324.094
 197.578 324.027 197.758 324.027 197.879 c 324.027 198.137 324.215 198.328
 324.477 198.328 c 324.996 198.328 325.203 197.535 325.203 197.48 c 325.203
 197.422 325.148 197.422 325.133 197.422 c 325.082 197.422 325.082 197.438
 325.055 197.523 c 324.949 197.871 324.77 198.207 324.492 198.207 c 324.398
 198.207 324.355 198.156 324.355 198.027 c 324.355 197.887 324.391 197.809
 324.52 197.473 c h
324.734 196.895 m f
327.688 196.535 m 327.688 196.527 327.695 196.477 327.695 196.477 c 327.695
 196.449 327.688 196.414 327.637 196.414 c 327.559 196.414 327.238 196.449
 327.145 196.457 c 327.117 196.457 327.059 196.469 327.059 196.547 c 327.059
 196.598 327.117 196.598 327.16 196.598 c 327.344 196.598 327.344 196.633
 327.344 196.656 c 327.344 196.684 327.344 196.711 327.332 196.742 c 327.109
 197.625 l 327.031 197.496 326.902 197.391 326.711 197.391 c 326.219 197.391
 325.719 197.938 325.719 198.488 c 325.719 198.871 325.969 199.129 326.305
 199.129 c 326.512 199.129 326.695 199.016 326.848 198.859 c 326.918 199.094
 327.145 199.129 327.246 199.129 c 327.387 199.129 327.48 199.051 327.551
 198.93 c 327.637 198.773 327.688 198.559 327.688 198.539 c 327.688 198.488
 327.637 198.488 327.629 198.488 c 327.566 198.488 327.566 198.508 327.539
 198.609 c 327.488 198.801 327.418 199.023 327.254 199.023 c 327.16 199.023
 327.125 198.938 327.125 198.836 c 327.125 198.766 327.133 198.73 327.152
 198.68 c h
326.867 198.609 m 326.84 198.723 326.754 198.801 326.668 198.871 c 326.633
 198.902 326.477 199.023 326.312 199.023 c 326.168 199.023 326.027 198.922
 326.027 198.652 c 326.027 198.445 326.141 198.023 326.234 197.867 c 326.41
 197.555 326.609 197.504 326.711 197.504 c 326.98 197.504 327.059 197.797
 327.059 197.84 c 327.059 197.852 327.047 197.883 327.047 197.895 c h
326.867 198.609 m f
Q Q
showpage
%%Trailer
end
%%EOF
