%!PS-Adobe-3.0 EPSF-3.0
%%Creator: cairo 1.17.4 (https://cairographics.org)
%%CreationDate: Thu Sep 30 19:32:25 2021
%%Pages: 1
%%DocumentData: Clean7Bit
%%LanguageLevel: 2
%%BoundingBox: 282 343 452 490
%%EndComments
%%BeginProlog
50 dict begin
/q { gsave } bind def
/Q { grestore } bind def
/cm { 6 array astore concat } bind def
/w { setlinewidth } bind def
/J { setlinecap } bind def
/j { setlinejoin } bind def
/M { setmiterlimit } bind def
/d { setdash } bind def
/m { moveto } bind def
/l { lineto } bind def
/c { curveto } bind def
/h { closepath } bind def
/re { exch dup neg 3 1 roll 5 3 roll moveto 0 rlineto
      0 exch rlineto 0 rlineto closepath } bind def
/S { stroke } bind def
/f { fill } bind def
/f* { eofill } bind def
/n { newpath } bind def
/W { clip } bind def
/W* { eoclip } bind def
/BT { } bind def
/ET { } bind def
/BDC { mark 3 1 roll /BDC pdfmark } bind def
/EMC { mark /EMC pdfmark } bind def
/cairo_store_point { /cairo_point_y exch def /cairo_point_x exch def } def
/Tj { show currentpoint cairo_store_point } bind def
/TJ {
  {
    dup
    type /stringtype eq
    { show } { -0.001 mul 0 cairo_font_matrix dtransform rmoveto } ifelse
  } forall
  currentpoint cairo_store_point
} bind def
/cairo_selectfont { cairo_font_matrix aload pop pop pop 0 0 6 array astore
    cairo_font exch selectfont cairo_point_x cairo_point_y moveto } bind def
/Tf { pop /cairo_font exch def /cairo_font_matrix where
      { pop cairo_selectfont } if } bind def
/Td { matrix translate cairo_font_matrix matrix concatmatrix dup
      /cairo_font_matrix exch def dup 4 get exch 5 get cairo_store_point
      /cairo_font where { pop cairo_selectfont } if } bind def
/Tm { 2 copy 8 2 roll 6 array astore /cairo_font_matrix exch def
      cairo_store_point /cairo_font where { pop cairo_selectfont } if } bind def
/g { setgray } bind def
/rg { setrgbcolor } bind def
/d1 { setcachedevice } bind def
/cairo_data_source {
  CairoDataIndex CairoData length lt
    { CairoData CairoDataIndex get /CairoDataIndex CairoDataIndex 1 add def }
    { () } ifelse
} def
/cairo_flush_ascii85_file { cairo_ascii85_file status { cairo_ascii85_file flushfile } if } def
/cairo_image { image cairo_flush_ascii85_file } def
/cairo_imagemask { imagemask cairo_flush_ascii85_file } def
%%EndProlog
%%BeginSetup
%%EndSetup
%%Page: 1 1
%%BeginPageSetup
%%PageBoundingBox: 282 343 452 490
%%EndPageSetup
q 282 343 170 147 rectclip
1 0 0 -1 0 842 cm q
0 g
2.834646 w
1 J
1 j
[] 0.0 d
4 M q 1 0 0 1 0 0 cm
283.465 425.195 m 362.836 425.195 l S Q
5.669291 w
q 1 0 0 1 0 0 cm
361.418 408.188 m 361.418 442.203 l S Q
2.834646 w
q 1 0 0 1 0 0 cm
362.836 416.691 m 382.676 402.52 l 382.676 354.332 l S Q
q 1 0 0 1 0 0 cm
362.836 433.699 m 382.676 447.875 l S Q
382.676 447.875 m 373.699 445.816 l 377.816 440.047 l h
382.676 447.875 m f*
1.383988 w
0 J
0 j
q 1 0.714286 -0.714286 1 0 0 cm
465.226 115.571 m 458.309 118.453 l 458.306 112.685 l h
465.226 115.571 m S Q
2.834646 w
1 J
1 j
q 1 0 0 1 0 0 cm
382.676 447.875 m 382.676 496.062 l S Q
q 1 0 0 1 0 0 cm
402.52 425.195 m 402.52 440.852 389.828 453.543 374.172 453.543 c 358.52
 453.543 345.828 440.852 345.828 425.195 c 345.828 409.543 358.52 396.852
 374.172 396.852 c 389.828 396.852 402.52 409.543 402.52 425.195 c h
402.52 425.195 m S Q
338.816 416.414 m 338.816 413.695 l 338.816 413.312 338.832 413.246 339.355
 413.246 c 340.73 413.246 l 341.812 413.246 342.195 414.184 342.195 414.777
 c 342.195 415.492 341.656 416.414 340.418 416.414 c h
341.43 416.52 m 342.508 416.309 343.273 415.594 343.273 414.777 c 343.273
 413.82 342.246 412.895 340.801 412.895 c 336.742 412.895 l 336.742 413.246
 l 337.004 413.246 l 337.859 413.246 337.895 413.367 337.895 413.766 c 337.895
 419.617 l 337.895 420.02 337.859 420.141 337.004 420.141 c 336.742 420.141
 l 336.742 420.488 l 341.098 420.488 l 342.578 420.488 343.57 419.496 343.57
 418.453 c 343.57 417.492 342.664 416.656 341.43 416.52 c h
340.75 420.141 m 339.355 420.141 l 338.832 420.141 338.816 420.07 338.816
 419.707 c 338.816 416.676 l 340.906 416.676 l 342.004 416.676 342.473 417.703
 342.473 418.453 c 342.473 419.234 341.883 420.141 340.75 420.141 c h
340.75 420.141 m f
372.211 389.766 m 372.211 392.062 374.004 393.805 376.078 393.805 c 377.891
 393.805 378.969 392.254 378.969 390.965 c 378.969 390.859 378.969 390.773
 378.832 390.773 c 378.707 390.773 378.707 390.844 378.691 390.965 c 378.605
 392.551 377.418 393.457 376.199 393.457 c 375.52 393.457 373.344 393.09
 373.344 389.766 c 373.344 386.453 375.52 386.07 376.199 386.07 c 377.402
 386.07 378.395 387.082 378.621 388.703 c 378.637 388.859 378.637 388.895
 378.797 388.895 c 378.969 388.895 378.969 388.859 378.969 388.633 c 378.969
 386 l 378.969 385.809 378.969 385.723 378.848 385.723 c 378.812 385.723
 378.762 385.723 378.672 385.863 c 378.117 386.68 l 377.715 386.281 377.141
 385.723 376.078 385.723 c 373.988 385.723 372.211 387.5 372.211 389.766
 c h
372.211 389.766 m f
373.301 463.539 m 373.301 463.938 373.266 464.062 372.41 464.062 c 372.152
 464.062 l 372.152 464.41 l 378.559 464.41 l 379.031 461.535 l 378.75 461.535
 l 378.473 463.262 378.211 464.062 376.312 464.062 c 374.832 464.062 l 374.309
 464.062 374.293 463.992 374.293 463.625 c 374.293 460.648 l 375.285 460.648
 l 376.367 460.648 376.488 461.012 376.488 461.953 c 376.766 461.953 l 376.766
 459.012 l 376.488 459.012 l 376.488 459.969 376.367 460.316 375.285 460.316
 c 374.293 460.316 l 374.293 457.633 l 374.293 457.27 374.309 457.199 374.832
 457.199 c 376.262 457.199 l 377.969 457.199 378.266 457.809 378.438 459.359
 c 378.719 459.359 l 378.402 456.852 l 372.152 456.852 l 372.152 457.199
 l 372.41 457.199 l 373.266 457.199 373.301 457.32 373.301 457.723 c h
373.301 463.539 m f
0.129412 0.482353 0.129412 rg
q 0 -1 1 0 0 0 cm
-396.852 411.023 m -415.191 417.508 -435.203 417.508 -453.543 411.023 c
 S Q
412.746 401.723 m 417.27 403.883 l 409.793 393.371 l 410.586 406.246 l 
h
412.746 401.723 m f*
0.668132 w
0 J
0 j
q 0.353553 1 -1 0.353553 0 0 cm
486.8 -240.636 m 490.142 -243.978 l 478.449 -240.636 l 490.142 -237.294
 l h
486.8 -240.636 m S Q
436.371 420.434 m 436.371 419.293 435.816 418.965 435.457 418.965 c 434.934
 418.965 434.41 419.52 434.41 419.977 c 434.41 420.238 434.508 420.371 434.738
 420.598 c 435.195 421.023 435.457 421.547 435.457 422.297 c 435.457 423.18
 434.184 427.945 431.766 427.945 c 430.688 427.945 430.199 427.227 430.199
 426.117 c 430.199 424.973 430.785 423.441 431.406 421.707 c 431.57 421.348
 431.668 421.055 431.668 420.664 c 431.668 419.75 431.016 418.965 429.969
 418.965 c 428.008 418.965 427.227 422.004 427.227 422.164 c 427.227 422.395
 427.422 422.395 427.453 422.395 c 427.684 422.395 427.684 422.328 427.781
 422.004 c 428.402 419.914 429.281 419.422 429.902 419.422 c 430.066 419.422
 430.426 419.422 430.426 420.074 c 430.426 420.598 430.199 421.188 430.066
 421.547 c 429.152 423.961 428.891 424.91 428.891 425.824 c 428.891 428.078
 430.719 428.402 431.668 428.402 c 435.16 428.402 436.371 421.512 436.371
 420.434 c h
436.371 420.434 m f
443.066 425.715 m 442.543 425.812 442.348 426.203 442.348 426.531 c 442.348
 426.922 442.641 427.086 442.902 427.086 c 443.23 427.086 443.719 426.855
 443.719 426.137 c 443.719 425.156 442.609 424.863 441.824 424.863 c 439.637
 424.863 437.613 426.891 437.613 428.914 c 437.613 430.156 438.461 431.43
 440.289 431.43 c 442.773 431.43 443.914 429.992 443.914 429.797 c 443.914
 429.699 443.785 429.535 443.652 429.535 c 443.59 429.535 443.555 429.566
 443.426 429.699 c 442.281 431.035 440.586 431.035 440.324 431.035 c 439.277
 431.035 438.82 430.316 438.82 429.402 c 438.82 429.012 439.016 427.41 439.77
 426.398 c 440.324 425.68 441.074 425.289 441.824 425.289 c 442.02 425.289
 442.707 425.32 443.066 425.715 c h
443.066 425.715 m f
447.406 427.965 m 447.797 427.965 448.973 427.934 449.754 427.672 c 450.832
 427.281 451.031 426.594 451.031 426.172 c 451.031 425.355 450.215 424.863
 449.234 424.863 c 447.469 424.863 445.117 426.203 445.117 428.719 c 445.117
 430.188 446.031 431.43 447.73 431.43 c 450.215 431.43 451.355 429.992 451.355
 429.797 c 451.355 429.699 451.227 429.535 451.094 429.535 c 451.031 429.535
 450.996 429.566 450.867 429.699 c 449.723 431.035 448.023 431.035 447.766
 431.035 c 446.883 431.035 446.293 430.449 446.293 429.273 c 446.293 429.078
 446.293 428.781 446.488 427.965 c h
446.59 427.574 m 447.207 425.453 448.809 425.289 449.234 425.289 c 449.855
 425.289 450.41 425.613 450.41 426.172 c 450.41 427.574 447.926 427.574 
447.305 427.574 c h
446.59 427.574 m f
2.004397 w
1 J
1 j
q -1 1 -1 -1 0 0 cm
42.723 -368.504 m 29.752 -363.92 15.602 -363.918 2.633 -368.504 c S Q
361.207 373.363 m 359.535 378.09 l 369.199 369.547 l 356.484 371.695 l 
h
361.207 373.363 m f*
0.639474 w
0 J
0 j
q -1 0.477592 -0.477592 -1 0 0 cm
-148.923 -444.488 m -145.724 -447.686 l -156.915 -444.488 l -145.726 -441.293
 l h
-148.923 -444.488 m S Q
319.742 365.074 m 319.742 363.93 319.188 363.605 318.828 363.605 c 318.305
 363.605 317.785 364.16 317.785 364.617 c 317.785 364.879 317.883 365.008
 318.109 365.238 c 318.566 365.66 318.828 366.184 318.828 366.934 c 318.828
 367.816 317.555 372.586 315.137 372.586 c 314.062 372.586 313.57 371.867
 313.57 370.758 c 313.57 369.613 314.16 368.078 314.777 366.348 c 314.941
 365.988 315.039 365.695 315.039 365.301 c 315.039 364.387 314.387 363.605
 313.344 363.605 c 311.383 363.605 310.598 366.641 310.598 366.805 c 310.598
 367.035 310.797 367.035 310.828 367.035 c 311.055 367.035 311.055 366.969
 311.152 366.641 c 311.773 364.551 312.656 364.062 313.277 364.062 c 313.441
 364.062 313.801 364.062 313.801 364.715 c 313.801 365.238 313.57 365.824
 313.441 366.184 c 312.527 368.602 312.266 369.547 312.266 370.461 c 312.266
 372.715 314.094 373.043 315.039 373.043 c 318.535 373.043 319.742 366.152
 319.742 365.074 c h
319.742 365.074 m f
326.441 370.352 m 325.918 370.449 325.723 370.84 325.723 371.168 c 325.723
 371.559 326.016 371.723 326.277 371.723 c 326.602 371.723 327.094 371.496
 327.094 370.777 c 327.094 369.797 325.984 369.504 325.199 369.504 c 323.012
 369.504 320.984 371.527 320.984 373.551 c 320.984 374.793 321.836 376.066
 323.664 376.066 c 326.145 376.066 327.289 374.629 327.289 374.434 c 327.289
 374.336 327.156 374.172 327.027 374.172 c 326.961 374.172 326.93 374.207
 326.801 374.336 c 325.656 375.676 323.957 375.676 323.695 375.676 c 322.652
 375.676 322.195 374.957 322.195 374.043 c 322.195 373.648 322.391 372.051
 323.141 371.039 c 323.695 370.32 324.449 369.926 325.199 369.926 c 325.395
 369.926 326.082 369.961 326.441 370.352 c h
326.441 370.352 m f
331.367 366.27 m 331.367 366.238 331.43 366.043 331.43 366.043 c 331.43
 365.941 331.367 365.812 331.168 365.812 c 330.875 365.812 329.668 365.941
 329.309 365.977 c 329.211 365.977 328.98 366.008 328.98 366.301 c 328.98
 366.5 329.211 366.5 329.375 366.5 c 330.059 366.5 330.059 366.629 330.059
 366.727 c 330.059 366.824 329.93 367.414 329.832 367.738 c 329.504 369.078
 l 329.375 369.602 328.59 372.77 328.559 372.965 c 328.461 373.324 328.461
 373.52 328.461 373.684 c 328.461 375.152 329.406 376.066 330.613 376.066
 c 332.445 376.066 334.371 374.109 334.371 371.953 c 334.371 370.254 333.195
 369.504 332.184 369.504 c 331.43 369.504 330.777 369.926 330.352 370.32
 c h
330.613 375.676 m 329.93 375.676 329.504 375.055 329.504 374.172 c 329.504
 373.648 329.637 373.16 330.059 371.496 c 330.125 371.234 330.125 371.199
 330.418 370.875 c 330.973 370.254 331.629 369.926 332.148 369.926 c 332.703
 369.926 333.195 370.352 333.195 371.332 c 333.195 371.918 332.902 373.422
 332.445 374.27 c 332.086 374.988 331.367 375.676 330.613 375.676 c h
330.613 375.676 m f
2.004397 w
1 J
1 j
q 1 1 -1 1 0 0 cm
422.564 56.693 m 409.594 61.277 395.445 61.277 382.475 56.693 c S Q
328.012 443.832 m 332.734 445.504 l 324.191 435.84 l 326.34 448.555 l h
328.012 443.832 m f*
0.639474 w
0 J
0 j
q 0.477592 1 -1 0.477592 0 0 cm
488.959 -94.489 m 492.157 -97.684 l 480.966 -94.486 l 492.154 -91.291 l
 h
488.959 -94.489 m S Q
319.5 472.141 m 319.5 470.996 318.945 470.668 318.586 470.668 c 318.062
 470.668 317.543 471.223 317.543 471.68 c 317.543 471.941 317.641 472.074
 317.867 472.301 c 318.324 472.727 318.586 473.25 318.586 474 c 318.586 
474.883 317.312 479.648 314.895 479.648 c 313.82 479.648 313.328 478.93 
313.328 477.82 c 313.328 476.68 313.918 475.145 314.535 473.414 c 314.699
 473.055 314.797 472.758 314.797 472.367 c 314.797 471.453 314.145 470.668
 313.102 470.668 c 311.141 470.668 310.355 473.707 310.355 473.871 c 310.355
 474.098 310.555 474.098 310.586 474.098 c 310.812 474.098 310.812 474.031
 310.91 473.707 c 311.531 471.617 312.414 471.125 313.035 471.125 c 313.199
 471.125 313.559 471.125 313.559 471.781 c 313.559 472.301 313.328 472.891
 313.199 473.25 c 312.285 475.664 312.023 476.613 312.023 477.527 c 312.023
 479.781 313.852 480.105 314.797 480.105 c 318.293 480.105 319.5 473.215
 319.5 472.141 c h
319.5 472.141 m f
323.684 473.336 m 323.684 473.301 323.75 473.105 323.75 473.105 c 323.75
 473.008 323.684 472.879 323.488 472.879 c 323.191 472.879 321.984 473.008
 321.625 473.039 c 321.527 473.039 321.301 473.074 321.301 473.367 c 321.301
 473.562 321.527 473.562 321.691 473.562 c 322.375 473.562 322.375 473.695
 322.375 473.793 c 322.375 473.891 322.246 474.477 322.148 474.805 c 321.82
 476.145 l 321.691 476.664 320.906 479.832 320.875 480.027 c 320.777 480.387
 320.777 480.586 320.777 480.746 c 320.777 482.219 321.723 483.133 322.934
 483.133 c 324.762 483.133 326.688 481.172 326.688 479.016 c 326.688 477.32
 325.512 476.566 324.5 476.566 c 323.75 476.566 323.094 476.992 322.672 
477.383 c h
322.934 482.738 m 322.246 482.738 321.82 482.121 321.82 481.238 c 321.82
 480.715 321.953 480.227 322.375 478.559 c 322.441 478.297 322.441 478.266
 322.734 477.938 c 323.293 477.32 323.945 476.992 324.465 476.992 c 325.023
 476.992 325.512 477.418 325.512 478.395 c 325.512 478.984 325.219 480.488
 324.762 481.336 c 324.402 482.055 323.684 482.738 322.934 482.738 c h
322.934 482.738 m f
330.418 479.672 m 330.809 479.672 331.984 479.637 332.77 479.375 c 333.848
 478.984 334.043 478.297 334.043 477.875 c 334.043 477.059 333.227 476.566
 332.246 476.566 c 330.484 476.566 328.133 477.906 328.133 480.422 c 328.133
 481.891 329.047 483.133 330.746 483.133 c 333.227 483.133 334.371 481.695
 334.371 481.5 c 334.371 481.402 334.238 481.238 334.109 481.238 c 334.043
 481.238 334.012 481.27 333.879 481.402 c 332.738 482.738 331.039 482.738
 330.777 482.738 c 329.895 482.738 329.309 482.152 329.309 480.977 c 329.309
 480.781 329.309 480.488 329.504 479.672 c h
329.602 479.277 m 330.223 477.156 331.824 476.992 332.246 476.992 c 332.867
 476.992 333.422 477.32 333.422 477.875 c 333.422 479.277 330.941 479.277
 330.32 479.277 c h
329.602 479.277 m f
1 0 0 rg
2.834646 w
1 J
1 j
q 0 1 -1 0 0 0 cm
357.875 -396.852 m 379.133 -396.852 l S Q
396.852 373.965 m 393.309 370.422 l 396.852 382.824 l 400.395 370.422 l
 h
396.852 373.965 m f*
0.708661 w
0 J
0 j
q 0 -1 1 0 0 0 cm
-373.965 396.852 m -370.422 393.309 l -382.824 396.852 l -370.422 400.395
 l h
-373.965 396.852 m S Q
409.699 360.738 m 409.699 360.312 409.406 359.988 408.949 359.988 c 408.359
 359.988 407.805 360.543 407.805 361.098 c 407.805 361.488 408.102 361.848
 408.59 361.848 c 409.078 361.848 409.699 361.359 409.699 360.738 c h
408.133 368.574 m 408.359 367.988 408.359 367.922 408.59 367.367 c 408.754
 366.941 408.852 366.648 408.852 366.258 c 408.852 365.344 408.199 364.559
 407.152 364.559 c 405.191 364.559 404.41 367.598 404.41 367.758 c 404.41
 367.988 404.605 367.988 404.637 367.988 c 404.867 367.988 404.867 367.922
 404.965 367.598 c 405.551 365.637 406.367 365.016 407.086 365.016 c 407.25
 365.016 407.609 365.016 407.609 365.668 c 407.609 366.125 407.445 366.551
 407.383 366.781 c 407.219 367.301 406.27 369.719 405.945 370.633 c 405.715
 371.156 405.453 371.84 405.453 372.297 c 405.453 373.277 406.172 373.996
 407.152 373.996 c 409.113 373.996 409.895 370.992 409.895 370.797 c 409.895
 370.566 409.699 370.566 409.633 370.566 c 409.438 370.566 409.438 370.633
 409.34 370.961 c 408.949 372.266 408.262 373.539 407.219 373.539 c 406.859
 373.539 406.695 373.344 406.695 372.855 c 406.695 372.332 406.824 372.039
 407.316 370.762 c h
408.133 368.574 m f
417.332 371.305 m 416.809 371.402 416.613 371.797 416.613 372.121 c 416.613
 372.516 416.906 372.68 417.168 372.68 c 417.496 372.68 417.984 372.449 
417.984 371.73 c 417.984 370.75 416.875 370.457 416.09 370.457 c 413.902
 370.457 411.879 372.48 411.879 374.508 c 411.879 375.746 412.727 377.02
 414.555 377.02 c 417.039 377.02 418.18 375.586 418.18 375.387 c 418.18 
375.289 418.051 375.129 417.922 375.129 c 417.855 375.129 417.82 375.16 
417.691 375.289 c 416.547 376.629 414.852 376.629 414.59 376.629 c 413.543
 376.629 413.086 375.91 413.086 374.996 c 413.086 374.605 413.281 373.004
 414.035 371.992 c 414.59 371.273 415.34 370.883 416.09 370.883 c 416.289
 370.883 416.973 370.914 417.332 371.305 c h
417.332 371.305 m f
2.834646 w
1 J
1 j
q 1 0 0 1 0 0 cm
294.094 411.023 m 315.355 411.023 l S Q
310.188 411.023 m 306.645 414.566 l 319.043 411.023 l 306.645 407.48 l 
h
310.188 411.023 m f*
0.708661 w
0 J
0 j
q -1 0 0 -1 0 0 cm
-310.188 -411.023 m -306.645 -414.566 l -319.043 -411.023 l -306.645 -407.48
 l h
-310.188 -411.023 m S Q
303.309 383.523 m 303.309 383.098 303.016 382.773 302.559 382.773 c 301.969
 382.773 301.414 383.328 301.414 383.883 c 301.414 384.273 301.707 384.633
 302.199 384.633 c 302.688 384.633 303.309 384.145 303.309 383.523 c h
301.742 391.359 m 301.969 390.773 301.969 390.707 302.199 390.152 c 302.363
 389.727 302.461 389.434 302.461 389.043 c 302.461 388.129 301.805 387.344
 300.762 387.344 c 298.801 387.344 298.02 390.383 298.02 390.543 c 298.02
 390.773 298.215 390.773 298.246 390.773 c 298.477 390.773 298.477 390.707
 298.574 390.383 c 299.16 388.422 299.977 387.801 300.695 387.801 c 300.859
 387.801 301.219 387.801 301.219 388.453 c 301.219 388.91 301.055 389.336
 300.988 389.566 c 300.828 390.086 299.879 392.504 299.555 393.418 c 299.324
 393.941 299.062 394.629 299.062 395.086 c 299.062 396.062 299.781 396.781
 300.762 396.781 c 302.719 396.781 303.504 393.777 303.504 393.582 c 303.504
 393.352 303.309 393.352 303.242 393.352 c 303.047 393.352 303.047 393.418
 302.949 393.746 c 302.559 395.051 301.871 396.324 300.828 396.324 c 300.469
 396.324 300.305 396.129 300.305 395.641 c 300.305 395.117 300.434 394.824
 300.926 393.551 c h
301.742 391.359 m f
308.426 390.012 m 308.426 389.977 308.492 389.781 308.492 389.781 c 308.492
 389.684 308.426 389.551 308.23 389.551 c 307.938 389.551 306.727 389.684
 306.367 389.715 c 306.27 389.715 306.043 389.75 306.043 390.043 c 306.043
 390.238 306.27 390.238 306.434 390.238 c 307.121 390.238 307.121 390.367
 307.121 390.469 c 307.121 390.566 306.988 391.152 306.891 391.48 c 306.566
 392.816 l 306.434 393.34 305.652 396.508 305.617 396.703 c 305.52 397.062
 305.52 397.258 305.52 397.422 c 305.52 398.891 306.469 399.809 307.676 
399.809 c 309.504 399.809 311.43 397.848 311.43 395.691 c 311.43 393.992
 310.254 393.242 309.242 393.242 c 308.492 393.242 307.84 393.668 307.414
 394.059 c h
307.676 399.414 m 306.988 399.414 306.566 398.793 306.566 397.914 c 306.566
 397.391 306.695 396.902 307.121 395.234 c 307.184 394.973 307.184 394.941
 307.48 394.613 c 308.035 393.992 308.688 393.668 309.211 393.668 c 309.766
 393.668 310.254 394.094 310.254 395.07 c 310.254 395.66 309.961 397.16 
309.504 398.012 c 309.145 398.73 308.426 399.414 307.676 399.414 c h
307.676 399.414 m f
2.834646 w
1 J
1 j
q 0 1 -1 0 0 0 cm
471.262 -396.852 m 492.52 -396.852 l S Q
396.852 487.352 m 393.309 483.809 l 396.852 496.211 l 400.395 483.809 l
 h
396.852 487.352 m f*
0.708661 w
0 J
0 j
q 0 -1 1 0 0 0 cm
-487.352 396.852 m -483.809 393.309 l -496.211 396.852 l -483.809 400.395
 l h
-487.352 396.852 m S Q
409.699 474.125 m 409.699 473.699 409.406 473.371 408.949 473.371 c 408.359
 473.371 407.805 473.926 407.805 474.484 c 407.805 474.875 408.102 475.234
 408.59 475.234 c 409.078 475.234 409.699 474.742 409.699 474.125 c h
408.133 481.961 m 408.359 481.375 408.359 481.309 408.59 480.754 c 408.754
 480.328 408.852 480.035 408.852 479.645 c 408.852 478.727 408.199 477.945
 407.152 477.945 c 405.191 477.945 404.41 480.98 404.41 481.145 c 404.41
 481.375 404.605 481.375 404.637 481.375 c 404.867 481.375 404.867 481.309
 404.965 480.98 c 405.551 479.023 406.367 478.402 407.086 478.402 c 407.25
 478.402 407.609 478.402 407.609 479.055 c 407.609 479.512 407.445 479.938
 407.383 480.164 c 407.219 480.688 406.27 483.105 405.945 484.02 c 405.715
 484.543 405.453 485.227 405.453 485.684 c 405.453 486.664 406.172 487.383
 407.152 487.383 c 409.113 487.383 409.895 484.379 409.895 484.184 c 409.895
 483.953 409.699 483.953 409.633 483.953 c 409.438 483.953 409.438 484.02
 409.34 484.344 c 408.949 485.652 408.262 486.926 407.219 486.926 c 406.859
 486.926 406.695 486.73 406.695 486.238 c 406.695 485.719 406.824 485.422
 407.316 484.148 c h
408.133 481.961 m f
414.23 486.945 m 414.621 486.945 415.797 486.914 416.582 486.652 c 417.66
 486.258 417.855 485.574 417.855 485.148 c 417.855 484.332 417.039 483.844
 416.059 483.844 c 414.297 483.844 411.945 485.184 411.945 487.695 c 411.945
 489.168 412.859 490.406 414.555 490.406 c 417.039 490.406 418.18 488.969
 418.18 488.773 c 418.18 488.676 418.051 488.512 417.922 488.512 c 417.855
 488.512 417.82 488.547 417.691 488.676 c 416.547 490.016 414.852 490.016
 414.59 490.016 c 413.707 490.016 413.121 489.426 413.121 488.25 c 413.121
 488.055 413.121 487.762 413.316 486.945 c h
413.414 486.555 m 414.035 484.43 415.633 484.266 416.059 484.266 c 416.68
 484.266 417.234 484.594 417.234 485.148 c 417.234 486.555 414.754 486.555
 414.133 486.555 c h
413.414 486.555 m f
Q Q
showpage
%%Trailer
end
%%EOF
