%!PS-Adobe-3.0 EPSF-3.0
%%Title: fig_echantionneur_real_cn.eps
%%Creator: Matplotlib v3.4.1, https://matplotlib.org/
%%CreationDate: Thu Sep 30 18:45:51 2021
%%Orientation: portrait
%%BoundingBox: 75 223 537 569
%%HiResBoundingBox: 75.600000 223.200000 536.400000 568.800000
%%EndComments
%%BeginProlog
/mpldict 12 dict def
mpldict begin
/d { bind def } bind def
/m { moveto } d
/l { lineto } d
/r { rlineto } d
/c { curveto } d
/cl { closepath } d
/ce { closepath eofill } d
/box {
      m
      1 index 0 r
      0 exch r
      neg 0 r
      cl
    } d
/clipbox {
      box
      clip
      newpath
    } d
/sc { setcachedevice } d
%!PS-Adobe-3.0 Resource-Font
%%Creator: Converted from TrueType to Type 3 by Matplotlib.
10 dict begin
/FontName /DejaVuSans def
/PaintType 0 def
/FontMatrix [0.00048828125 0 0 0.00048828125 0 0] def
/FontBBox [-2090 -948 3673 2524] def
/FontType 3 def
/Encoding [/period /zero /one /two /minus /four /five /six /seven /eight /equal] def
/CharStrings 12 dict dup begin
/.notdef 0 def
/period{651 0 219 0 430 254 sc
219 254 m
430 254 l
430 0 l
219 0 l
219 254 l

ce} d
/zero{1303 0 135 -29 1167 1520 sc
651 1360 m
547 1360 469 1309 416 1206 c
364 1104 338 950 338 745 c
338 540 364 387 416 284 c
469 182 547 131 651 131 c
756 131 834 182 886 284 c
939 387 965 540 965 745 c
965 950 939 1104 886 1206 c
834 1309 756 1360 651 1360 c

651 1520 m
818 1520 946 1454 1034 1321 c
1123 1189 1167 997 1167 745 c
1167 494 1123 302 1034 169 c
946 37 818 -29 651 -29 c
484 -29 356 37 267 169 c
179 302 135 494 135 745 c
135 997 179 1189 267 1321 c
356 1454 484 1520 651 1520 c

ce} d
/one{1303 0 225 0 1114 1493 sc
254 170 m
584 170 l
584 1309 l
225 1237 l
225 1421 l
582 1493 l
784 1493 l
784 170 l
1114 170 l
1114 0 l
254 0 l
254 170 l

ce} d
/two{1303 0 150 0 1098 1520 sc
393 170 m
1098 170 l
1098 0 l
150 0 l
150 170 l
227 249 331 356 463 489 c
596 623 679 709 713 748 c
778 821 823 882 848 932 c
874 983 887 1032 887 1081 c
887 1160 859 1225 803 1275 c
748 1325 675 1350 586 1350 c
523 1350 456 1339 385 1317 c
315 1295 240 1262 160 1217 c
160 1421 l
241 1454 317 1478 388 1495 c
459 1512 523 1520 582 1520 c
737 1520 860 1481 952 1404 c
1044 1327 1090 1223 1090 1094 c
1090 1033 1078 974 1055 919 c
1032 864 991 800 930 725 c
913 706 860 650 771 557 c
682 465 556 336 393 170 c

ce} d
/minus{1716 0 217 557 1499 727 sc
217 727 m
1499 727 l
1499 557 l
217 557 l
217 727 l

ce} d
/four{1303 0 100 0 1188 1493 sc
774 1317 m
264 520 l
774 520 l
774 1317 l

721 1493 m
975 1493 l
975 520 l
1188 520 l
1188 352 l
975 352 l
975 0 l
774 0 l
774 352 l
100 352 l
100 547 l
721 1493 l

ce} d
/five{1303 0 158 -29 1124 1493 sc
221 1493 m
1014 1493 l
1014 1323 l
406 1323 l
406 957 l
435 967 465 974 494 979 c
523 984 553 987 582 987 c
749 987 881 941 978 850 c
1075 759 1124 635 1124 479 c
1124 318 1074 193 974 104 c
874 15 733 -29 551 -29 c
488 -29 424 -24 359 -13 c
294 -2 227 14 158 35 c
158 238 l
218 205 280 181 344 165 c
408 149 476 141 547 141 c
662 141 754 171 821 232 c
888 293 922 375 922 479 c
922 583 888 665 821 726 c
754 787 662 817 547 817 c
493 817 439 811 385 799 c
332 787 277 768 221 743 c
221 1493 l

ce} d
/six{1303 0 143 -29 1174 1520 sc
676 827 m
585 827 513 796 460 734 c
407 672 381 587 381 479 c
381 372 407 287 460 224 c
513 162 585 131 676 131 c
767 131 838 162 891 224 c
944 287 971 372 971 479 c
971 587 944 672 891 734 c
838 796 767 827 676 827 c

1077 1460 m
1077 1276 l
1026 1300 975 1318 923 1331 c
872 1344 821 1350 770 1350 c
637 1350 535 1305 464 1215 c
394 1125 354 989 344 807 c
383 865 433 909 492 940 c
551 971 617 987 688 987 c
838 987 956 941 1043 850 c
1130 759 1174 636 1174 479 c
1174 326 1129 203 1038 110 c
947 17 827 -29 676 -29 c
503 -29 371 37 280 169 c
189 302 143 494 143 745 c
143 981 199 1169 311 1309 c
423 1450 573 1520 762 1520 c
813 1520 864 1515 915 1505 c
967 1495 1021 1480 1077 1460 c

ce} d
/seven{1303 0 168 0 1128 1493 sc
168 1493 m
1128 1493 l
1128 1407 l
586 0 l
375 0 l
885 1323 l
168 1323 l
168 1493 l

ce} d
/eight{1303 0 139 -29 1163 1520 sc
651 709 m
555 709 479 683 424 632 c
369 581 342 510 342 420 c
342 330 369 259 424 208 c
479 157 555 131 651 131 c
747 131 823 157 878 208 c
933 260 961 331 961 420 c
961 510 933 581 878 632 c
823 683 748 709 651 709 c

449 795 m
362 816 295 857 246 916 c
198 975 174 1048 174 1133 c
174 1252 216 1347 301 1416 c
386 1485 503 1520 651 1520 c
800 1520 916 1485 1001 1416 c
1086 1347 1128 1252 1128 1133 c
1128 1048 1104 975 1055 916 c
1007 857 940 816 854 795 c
951 772 1027 728 1081 662 c
1136 596 1163 515 1163 420 c
1163 275 1119 164 1030 87 c
942 10 816 -29 651 -29 c
486 -29 360 10 271 87 c
183 164 139 275 139 420 c
139 515 166 596 221 662 c
276 728 352 772 449 795 c

375 1114 m
375 1037 399 976 447 933 c
496 890 564 868 651 868 c
738 868 805 890 854 933 c
903 976 928 1037 928 1114 c
928 1191 903 1252 854 1295 c
805 1338 738 1360 651 1360 c
564 1360 496 1338 447 1295 c
399 1252 375 1191 375 1114 c

ce} d
/equal{1716 0 217 352 1499 930 sc
217 930 m
1499 930 l
1499 762 l
217 762 l
217 930 l

217 522 m
1499 522 l
1499 352 l
217 352 l
217 522 l

ce} d
end readonly def

/BuildGlyph {
 exch begin
 CharStrings exch
 2 copy known not {pop /.notdef} if
 true 3 1 roll get exec
 end
} d

/BuildChar {
 1 index /Encoding get exch get
 1 index /BuildGlyph get exec
} d

FontName currentdict end definefont pop
%!PS-Adobe-3.0 Resource-Font
%%Creator: Converted from TrueType to Type 3 by Matplotlib.
10 dict begin
/FontName /DejaVuSans-Oblique def
/PaintType 0 def
/FontMatrix [0.00048828125 0 0 0.00048828125 0 0] def
/FontBBox [-2080 -717 3398 2187] def
/FontType 3 def
/Encoding [/tau /e /T] def
/CharStrings 4 dict dup begin
/.notdef 0 def
/tau{1233 0 173 0 1242 1120 sc
673 204 m
691 172 736 156 808 156 c
896 156 l
866 0 l
756 0 l
636 0 555 32 512 96 c
470 161 463 265 491 406 c
594 936 l
173 936 l
209 1120 l
1242 1120 l
1206 936 l
782 936 l
676 395 l
657 298 656 235 673 204 c

ce} d
/e{1260 0 94 -29 1169 1147 sc
985 660 m
987 671 988 682 989 693 c
990 704 991 716 991 727 c
991 808 967 873 919 920 c
872 967 807 991 725 991 c
634 991 553 962 483 904 c
413 847 360 765 324 659 c
985 660 l

1145 516 m
289 516 l
285 491 282 471 281 456 c
280 441 279 429 279 418 c
279 325 307 254 364 203 c
421 152 502 127 606 127 c
686 127 762 136 833 154 c
904 172 971 198 1032 233 c
997 51 l
931 24 863 4 792 -9 c
722 -22 651 -29 578 -29 c
423 -29 303 8 219 82 c
136 157 94 262 94 399 c
94 516 115 624 156 724 c
198 825 259 914 340 993 c
392 1042 454 1080 525 1107 c
597 1134 673 1147 754 1147 c
881 1147 981 1109 1056 1033 c
1131 957 1169 855 1169 727 c
1169 696 1167 663 1163 628 c
1159 593 1153 556 1145 516 c

ce} d
/T{1251 0 88 0 1384 1493 sc
121 1493 m
1384 1493 l
1352 1323 l
819 1323 l
563 0 l
360 0 l
616 1323 l
88 1323 l
121 1493 l

ce} d
end readonly def

/BuildGlyph {
 exch begin
 CharStrings exch
 2 copy known not {pop /.notdef} if
 true 3 1 roll get exec
 end
} d

/BuildChar {
 1 index /Encoding get exch get
 1 index /BuildGlyph get exec
} d

FontName currentdict end definefont pop
end
%%EndProlog
mpldict begin
75.6 223.2 translate
460.8 345.6 0 0 clipbox
gsave
0 0 m
460.8 0 l
460.8 345.6 l
0 345.6 l
cl
1.000 setgray
fill
grestore
gsave
41.92 27.88 m
450 27.88 l
450 334.8 l
41.92 334.8 l
cl
1.000 setgray
fill
grestore
0.800 setlinewidth
1 setlinejoin
0 setlinecap
[] 0 setdash
0.000 setgray
gsave
/o {
gsave
newpath
translate
0.8 setlinewidth
1 setlinejoin

0 setlinecap

0 0 m
0 -3.5 l

gsave
0.000 setgray
fill
grestore
stroke
grestore
} bind def
60.4691 27.88 o
grestore
/DejaVuSans 10.000 selectfont
gsave

52.515966 13.286250 translate
0.000000 rotate
0.000000 0 m /zero glyphshow
6.362305 0 m /period glyphshow
9.541016 0 m /zero glyphshow
grestore
gsave
/o {
gsave
newpath
translate
0.8 setlinewidth
1 setlinejoin

0 setlinecap

0 0 m
0 -3.5 l

gsave
0.000 setgray
fill
grestore
stroke
grestore
} bind def
109.282 27.88 o
grestore
gsave

101.329363 13.286250 translate
0.000000 rotate
0.000000 0 m /two glyphshow
6.362305 0 m /period glyphshow
9.541016 0 m /five glyphshow
grestore
gsave
/o {
gsave
newpath
translate
0.8 setlinewidth
1 setlinejoin

0 setlinecap

0 0 m
0 -3.5 l

gsave
0.000 setgray
fill
grestore
stroke
grestore
} bind def
158.096 27.88 o
grestore
gsave

150.142760 13.286250 translate
0.000000 rotate
0.000000 0 m /five glyphshow
6.362305 0 m /period glyphshow
9.541016 0 m /zero glyphshow
grestore
gsave
/o {
gsave
newpath
translate
0.8 setlinewidth
1 setlinejoin

0 setlinecap

0 0 m
0 -3.5 l

gsave
0.000 setgray
fill
grestore
stroke
grestore
} bind def
206.909 27.88 o
grestore
gsave

198.956157 13.286250 translate
0.000000 rotate
0.000000 0 m /seven glyphshow
6.362305 0 m /period glyphshow
9.541016 0 m /five glyphshow
grestore
gsave
/o {
gsave
newpath
translate
0.8 setlinewidth
1 setlinejoin

0 setlinecap

0 0 m
0 -3.5 l

gsave
0.000 setgray
fill
grestore
stroke
grestore
} bind def
255.723 27.88 o
grestore
gsave

244.589867 13.286250 translate
0.000000 rotate
0.000000 0 m /one glyphshow
6.362305 0 m /zero glyphshow
12.724609 0 m /period glyphshow
15.903320 0 m /zero glyphshow
grestore
gsave
/o {
gsave
newpath
translate
0.8 setlinewidth
1 setlinejoin

0 setlinecap

0 0 m
0 -3.5 l

gsave
0.000 setgray
fill
grestore
stroke
grestore
} bind def
304.536 27.88 o
grestore
gsave

293.403264 13.286250 translate
0.000000 rotate
0.000000 0 m /one glyphshow
6.362305 0 m /two glyphshow
12.724609 0 m /period glyphshow
15.903320 0 m /five glyphshow
grestore
gsave
/o {
gsave
newpath
translate
0.8 setlinewidth
1 setlinejoin

0 setlinecap

0 0 m
0 -3.5 l

gsave
0.000 setgray
fill
grestore
stroke
grestore
} bind def
353.349 27.88 o
grestore
gsave

342.216661 13.286250 translate
0.000000 rotate
0.000000 0 m /one glyphshow
6.362305 0 m /five glyphshow
12.724609 0 m /period glyphshow
15.903320 0 m /zero glyphshow
grestore
gsave
/o {
gsave
newpath
translate
0.8 setlinewidth
1 setlinejoin

0 setlinecap

0 0 m
0 -3.5 l

gsave
0.000 setgray
fill
grestore
stroke
grestore
} bind def
402.163 27.88 o
grestore
gsave

391.030058 13.286250 translate
0.000000 rotate
0.000000 0 m /one glyphshow
6.362305 0 m /seven glyphshow
12.724609 0 m /period glyphshow
15.903320 0 m /five glyphshow
grestore
gsave
/o {
gsave
newpath
translate
0.8 setlinewidth
1 setlinejoin

0 setlinecap

-0 0 m
-3.5 0 l

gsave
0.000 setgray
fill
grestore
stroke
grestore
} bind def
41.92 45.5557 o
grestore
gsave

10.638750 41.758802 translate
0.000000 rotate
0.000000 0 m /minus glyphshow
8.378906 0 m /zero glyphshow
14.741211 0 m /period glyphshow
17.919922 0 m /two glyphshow
grestore
gsave
/o {
gsave
newpath
translate
0.8 setlinewidth
1 setlinejoin

0 setlinecap

-0 0 m
-3.5 0 l

gsave
0.000 setgray
fill
grestore
stroke
grestore
} bind def
41.92 91.4379 o
grestore
gsave

19.013750 87.641037 translate
0.000000 rotate
0.000000 0 m /zero glyphshow
6.362305 0 m /period glyphshow
9.541016 0 m /zero glyphshow
grestore
gsave
/o {
gsave
newpath
translate
0.8 setlinewidth
1 setlinejoin

0 setlinecap

-0 0 m
-3.5 0 l

gsave
0.000 setgray
fill
grestore
stroke
grestore
} bind def
41.92 137.32 o
grestore
gsave

19.013750 133.523273 translate
0.000000 rotate
0.000000 0 m /zero glyphshow
6.362305 0 m /period glyphshow
9.541016 0 m /two glyphshow
grestore
gsave
/o {
gsave
newpath
translate
0.8 setlinewidth
1 setlinejoin

0 setlinecap

-0 0 m
-3.5 0 l

gsave
0.000 setgray
fill
grestore
stroke
grestore
} bind def
41.92 183.202 o
grestore
gsave

19.013750 179.405509 translate
0.000000 rotate
0.000000 0 m /zero glyphshow
6.362305 0 m /period glyphshow
9.541016 0 m /four glyphshow
grestore
gsave
/o {
gsave
newpath
translate
0.8 setlinewidth
1 setlinejoin

0 setlinecap

-0 0 m
-3.5 0 l

gsave
0.000 setgray
fill
grestore
stroke
grestore
} bind def
41.92 229.085 o
grestore
gsave

19.013750 225.287745 translate
0.000000 rotate
0.000000 0 m /zero glyphshow
6.362305 0 m /period glyphshow
9.541016 0 m /six glyphshow
grestore
gsave
/o {
gsave
newpath
translate
0.8 setlinewidth
1 setlinejoin

0 setlinecap

-0 0 m
-3.5 0 l

gsave
0.000 setgray
fill
grestore
stroke
grestore
} bind def
41.92 274.967 o
grestore
gsave

19.013750 271.169980 translate
0.000000 rotate
0.000000 0 m /zero glyphshow
6.362305 0 m /period glyphshow
9.541016 0 m /eight glyphshow
grestore
gsave
/o {
gsave
newpath
translate
0.8 setlinewidth
1 setlinejoin

0 setlinecap

-0 0 m
-3.5 0 l

gsave
0.000 setgray
fill
grestore
stroke
grestore
} bind def
41.92 320.849 o
grestore
gsave

19.013750 317.052216 translate
0.000000 rotate
0.000000 0 m /one glyphshow
6.362305 0 m /period glyphshow
9.541016 0 m /zero glyphshow
grestore
1.500 setlinewidth
[1.5 2.475] 0 setdash
gsave
408.08 306.92 41.92 27.88 clipbox
60.469091 91.437912 m
60.469091 320.849091 l
stroke
grestore
gsave
408.08 306.92 41.92 27.88 clipbox
79.99445 91.437912 m
79.99445 306.049611 l
stroke
grestore
gsave
408.08 306.92 41.92 27.88 clipbox
99.519809 91.437912 m
99.519809 265.062424 l
stroke
grestore
gsave
408.08 306.92 41.92 27.88 clipbox
119.045167 91.437912 m
119.045167 207.187587 l
stroke
grestore
gsave
408.08 306.92 41.92 27.88 clipbox
138.570526 91.437912 m
138.570526 145.090837 l
stroke
grestore
gsave
408.08 306.92 41.92 27.88 clipbox
158.095885 91.437912 m
158.095885 91.437912 l
stroke
grestore
gsave
408.08 306.92 41.92 27.88 clipbox
177.621244 91.437912 m
177.621244 55.669296 l
stroke
grestore
gsave
408.08 306.92 41.92 27.88 clipbox
197.146603 91.437912 m
197.146603 41.830909 l
stroke
grestore
gsave
408.08 306.92 41.92 27.88 clipbox
216.671962 91.437912 m
216.671962 48.031785 l
stroke
grestore
gsave
408.08 306.92 41.92 27.88 clipbox
236.197321 91.437912 m
236.197321 67.592168 l
stroke
grestore
gsave
408.08 306.92 41.92 27.88 clipbox
255.722679 91.437912 m
255.722679 91.437912 l
stroke
grestore
gsave
408.08 306.92 41.92 27.88 clipbox
275.248038 91.437912 m
275.248038 110.948067 l
stroke
grestore
gsave
408.08 306.92 41.92 27.88 clipbox
294.773397 91.437912 m
294.773397 120.375331 l
stroke
grestore
gsave
408.08 306.92 41.92 27.88 clipbox
314.298756 91.437912 m
314.298756 118.149376 l
stroke
grestore
gsave
408.08 306.92 41.92 27.88 clipbox
333.824115 91.437912 m
333.824115 106.76732 l
stroke
grestore
gsave
408.08 306.92 41.92 27.88 clipbox
353.349474 91.437912 m
353.349474 91.437912 l
stroke
grestore
gsave
408.08 306.92 41.92 27.88 clipbox
372.874833 91.437912 m
372.874833 78.024681 l
stroke
grestore
gsave
408.08 306.92 41.92 27.88 clipbox
392.400191 91.437912 m
392.400191 71.011499 l
stroke
grestore
gsave
408.08 306.92 41.92 27.88 clipbox
411.92555 91.437912 m
411.92555 72.1463 l
stroke
grestore
gsave
408.08 306.92 41.92 27.88 clipbox
431.450909 91.437912 m
431.450909 80.14256 l
stroke
grestore
gsave
408.08 306.92 41.92 27.88 clipbox
60.469091 91.437912 m
60.469091 320.849091 l
stroke
grestore
gsave
408.08 306.92 41.92 27.88 clipbox
79.99445 91.437912 m
79.99445 317.094007 l
stroke
grestore
gsave
408.08 306.92 41.92 27.88 clipbox
99.519809 91.437912 m
99.519809 306.049611 l
stroke
grestore
gsave
408.08 306.92 41.92 27.88 clipbox
119.045167 91.437912 m
119.045167 288.363021 l
stroke
grestore
gsave
408.08 306.92 41.92 27.88 clipbox
138.570526 91.437912 m
138.570526 265.062424 l
stroke
grestore
gsave
408.08 306.92 41.92 27.88 clipbox
158.095885 91.437912 m
158.095885 237.485605 l
stroke
grestore
gsave
408.08 306.92 41.92 27.88 clipbox
177.621244 91.437912 m
177.621244 207.187587 l
stroke
grestore
gsave
408.08 306.92 41.92 27.88 clipbox
197.146603 91.437912 m
197.146603 175.834387 l
stroke
grestore
gsave
408.08 306.92 41.92 27.88 clipbox
216.671962 91.437912 m
216.671962 145.090837 l
stroke
grestore
gsave
408.08 306.92 41.92 27.88 clipbox
236.197321 91.437912 m
236.197321 116.510812 l
stroke
grestore
gsave
408.08 306.92 41.92 27.88 clipbox
255.722679 91.437912 m
255.722679 91.437912 l
stroke
grestore
gsave
408.08 306.92 41.92 27.88 clipbox
275.248038 91.437912 m
275.248038 70.923722 l
stroke
grestore
gsave
408.08 306.92 41.92 27.88 clipbox
294.773397 91.437912 m
294.773397 55.669296 l
stroke
grestore
gsave
408.08 306.92 41.92 27.88 clipbox
314.298756 91.437912 m
314.298756 45.993657 l
stroke
grestore
gsave
408.08 306.92 41.92 27.88 clipbox
333.824115 91.437912 m
333.824115 41.830909 l
stroke
grestore
gsave
408.08 306.92 41.92 27.88 clipbox
353.349474 91.437912 m
353.349474 42.755348 l
stroke
grestore
gsave
408.08 306.92 41.92 27.88 clipbox
372.874833 91.437912 m
372.874833 48.031785 l
stroke
grestore
gsave
408.08 306.92 41.92 27.88 clipbox
392.400191 91.437912 m
392.400191 56.686423 l
stroke
grestore
gsave
408.08 306.92 41.92 27.88 clipbox
411.92555 91.437912 m
411.92555 67.592168 l
stroke
grestore
gsave
408.08 306.92 41.92 27.88 clipbox
431.450909 91.437912 m
431.450909 79.561276 l
stroke
grestore
gsave
408.08 306.92 41.92 27.88 clipbox
60.469091 91.437912 m
60.469091 320.849091 l
stroke
grestore
gsave
408.08 306.92 41.92 27.88 clipbox
79.99445 91.437912 m
79.99445 319.906838 l
stroke
grestore
gsave
408.08 306.92 41.92 27.88 clipbox
99.519809 91.437912 m
99.519809 317.094007 l
stroke
grestore
gsave
408.08 306.92 41.92 27.88 clipbox
119.045167 91.437912 m
119.045167 312.452128 l
stroke
grestore
gsave
408.08 306.92 41.92 27.88 clipbox
138.570526 91.437912 m
138.570526 306.049611 l
stroke
grestore
gsave
408.08 306.92 41.92 27.88 clipbox
158.095885 91.437912 m
158.095885 297.98054 l
stroke
grestore
gsave
408.08 306.92 41.92 27.88 clipbox
177.621244 91.437912 m
177.621244 288.363021 l
stroke
grestore
gsave
408.08 306.92 41.92 27.88 clipbox
197.146603 91.437912 m
197.146603 277.337122 l
stroke
grestore
gsave
408.08 306.92 41.92 27.88 clipbox
216.671962 91.437912 m
216.671962 265.062424 l
stroke
grestore
gsave
408.08 306.92 41.92 27.88 clipbox
236.197321 91.437912 m
236.197321 251.715249 l
stroke
grestore
gsave
408.08 306.92 41.92 27.88 clipbox
255.722679 91.437912 m
255.722679 237.485605 l
stroke
grestore
gsave
408.08 306.92 41.92 27.88 clipbox
275.248038 91.437912 m
275.248038 222.573915 l
stroke
grestore
gsave
408.08 306.92 41.92 27.88 clipbox
294.773397 91.437912 m
294.773397 207.187587 l
stroke
grestore
gsave
408.08 306.92 41.92 27.88 clipbox
314.298756 91.437912 m
314.298756 191.537487 l
stroke
grestore
gsave
408.08 306.92 41.92 27.88 clipbox
333.824115 91.437912 m
333.824115 175.834387 l
stroke
grestore
gsave
408.08 306.92 41.92 27.88 clipbox
353.349474 91.437912 m
353.349474 160.285455 l
stroke
grestore
gsave
408.08 306.92 41.92 27.88 clipbox
372.874833 91.437912 m
372.874833 145.090837 l
stroke
grestore
gsave
408.08 306.92 41.92 27.88 clipbox
392.400191 91.437912 m
392.400191 130.440421 l
stroke
grestore
gsave
408.08 306.92 41.92 27.88 clipbox
411.92555 91.437912 m
411.92555 116.510812 l
stroke
grestore
gsave
408.08 306.92 41.92 27.88 clipbox
431.450909 91.437912 m
431.450909 103.462593 l
stroke
grestore
gsave
408.08 306.92 41.92 27.88 clipbox
60.469091 91.437912 m
60.469091 320.849091 l
stroke
grestore
gsave
408.08 306.92 41.92 27.88 clipbox
79.99445 91.437912 m
79.99445 320.811356 l
stroke
grestore
gsave
408.08 306.92 41.92 27.88 clipbox
99.519809 91.437912 m
99.519809 320.698174 l
stroke
grestore
gsave
408.08 306.92 41.92 27.88 clipbox
119.045167 91.437912 m
119.045167 320.509612 l
stroke
grestore
gsave
408.08 306.92 41.92 27.88 clipbox
138.570526 91.437912 m
138.570526 320.245781 l
stroke
grestore
gsave
408.08 306.92 41.92 27.88 clipbox
158.095885 91.437912 m
158.095885 319.906838 l
stroke
grestore
gsave
408.08 306.92 41.92 27.88 clipbox
177.621244 91.437912 m
177.621244 319.492984 l
stroke
grestore
gsave
408.08 306.92 41.92 27.88 clipbox
197.146603 91.437912 m
197.146603 319.004462 l
stroke
grestore
gsave
408.08 306.92 41.92 27.88 clipbox
216.671962 91.437912 m
216.671962 318.441563 l
stroke
grestore
gsave
408.08 306.92 41.92 27.88 clipbox
236.197321 91.437912 m
236.197321 317.804619 l
stroke
grestore
gsave
408.08 306.92 41.92 27.88 clipbox
255.722679 91.437912 m
255.722679 317.094007 l
stroke
grestore
gsave
408.08 306.92 41.92 27.88 clipbox
275.248038 91.437912 m
275.248038 316.310147 l
stroke
grestore
gsave
408.08 306.92 41.92 27.88 clipbox
294.773397 91.437912 m
294.773397 315.453501 l
stroke
grestore
gsave
408.08 306.92 41.92 27.88 clipbox
314.298756 91.437912 m
314.298756 314.524577 l
stroke
grestore
gsave
408.08 306.92 41.92 27.88 clipbox
333.824115 91.437912 m
333.824115 313.523923 l
stroke
grestore
gsave
408.08 306.92 41.92 27.88 clipbox
353.349474 91.437912 m
353.349474 312.452128 l
stroke
grestore
gsave
408.08 306.92 41.92 27.88 clipbox
372.874833 91.437912 m
372.874833 311.309826 l
stroke
grestore
gsave
408.08 306.92 41.92 27.88 clipbox
392.400191 91.437912 m
392.400191 310.097689 l
stroke
grestore
gsave
408.08 306.92 41.92 27.88 clipbox
411.92555 91.437912 m
411.92555 308.816431 l
stroke
grestore
gsave
408.08 306.92 41.92 27.88 clipbox
431.450909 91.437912 m
431.450909 307.466808 l
stroke
grestore
1.000 setlinewidth
[] 0 setdash
0.122 0.467 0.706 setrgbcolor
gsave
408.08 306.92 41.92 27.88 clipbox
/o {
gsave
newpath
translate
1.0 setlinewidth
1 setlinejoin

0 setlinecap

0 -3 m
0.795609 -3 1.55874 -2.683901 2.12132 -2.12132 c
2.683901 -1.55874 3 -0.795609 3 0 c
3 0.795609 2.683901 1.55874 2.12132 2.12132 c
1.55874 2.683901 0.795609 3 0 3 c
-0.795609 3 -1.55874 2.683901 -2.12132 2.12132 c
-2.683901 1.55874 -3 0.795609 -3 0 c
-3 -0.795609 -2.683901 -1.55874 -2.12132 -2.12132 c
-1.55874 -2.683901 -0.795609 -3 0 -3 c
cl

gsave
0.122 0.467 0.706 setrgbcolor
fill
grestore
stroke
grestore
} bind def
60.4691 320.849 o
79.9944 306.05 o
99.5198 265.062 o
119.045 207.188 o
138.571 145.091 o
158.096 91.4379 o
177.621 55.6693 o
197.147 41.8309 o
216.672 48.0318 o
236.197 67.5922 o
255.723 91.4379 o
275.248 110.948 o
294.773 120.375 o
314.299 118.149 o
333.824 106.767 o
353.349 91.4379 o
372.875 78.0247 o
392.4 71.0115 o
411.926 72.1463 o
431.451 80.1426 o
grestore
1.500 setlinewidth
2 setlinecap
0.000 setgray
gsave
408.08 306.92 41.92 27.88 clipbox
60.469091 91.437912 m
431.450909 91.437912 l
stroke
grestore
1.000 setlinewidth
0 setlinecap
1.000 0.498 0.055 setrgbcolor
gsave
408.08 306.92 41.92 27.88 clipbox
/o {
gsave
newpath
translate
1.0 setlinewidth
1 setlinejoin

0 setlinecap

0 -3 m
0.795609 -3 1.55874 -2.683901 2.12132 -2.12132 c
2.683901 -1.55874 3 -0.795609 3 0 c
3 0.795609 2.683901 1.55874 2.12132 2.12132 c
1.55874 2.683901 0.795609 3 0 3 c
-0.795609 3 -1.55874 2.683901 -2.12132 2.12132 c
-2.683901 1.55874 -3 0.795609 -3 0 c
-3 -0.795609 -2.683901 -1.55874 -2.12132 -2.12132 c
-1.55874 -2.683901 -0.795609 -3 0 -3 c
cl

gsave
1.000 0.498 0.055 setrgbcolor
fill
grestore
stroke
grestore
} bind def
60.4691 320.849 o
79.9944 317.094 o
99.5198 306.05 o
119.045 288.363 o
138.571 265.062 o
158.096 237.486 o
177.621 207.188 o
197.147 175.834 o
216.672 145.091 o
236.197 116.511 o
255.723 91.4379 o
275.248 70.9237 o
294.773 55.6693 o
314.299 45.9937 o
333.824 41.8309 o
353.349 42.7553 o
372.875 48.0318 o
392.4 56.6864 o
411.926 67.5922 o
431.451 79.5613 o
grestore
1.500 setlinewidth
2 setlinecap
0.000 setgray
gsave
408.08 306.92 41.92 27.88 clipbox
60.469091 91.437912 m
431.450909 91.437912 l
stroke
grestore
1.000 setlinewidth
0 setlinecap
0.173 0.627 0.173 setrgbcolor
gsave
408.08 306.92 41.92 27.88 clipbox
/o {
gsave
newpath
translate
1.0 setlinewidth
1 setlinejoin

0 setlinecap

0 -3 m
0.795609 -3 1.55874 -2.683901 2.12132 -2.12132 c
2.683901 -1.55874 3 -0.795609 3 0 c
3 0.795609 2.683901 1.55874 2.12132 2.12132 c
1.55874 2.683901 0.795609 3 0 3 c
-0.795609 3 -1.55874 2.683901 -2.12132 2.12132 c
-2.683901 1.55874 -3 0.795609 -3 0 c
-3 -0.795609 -2.683901 -1.55874 -2.12132 -2.12132 c
-1.55874 -2.683901 -0.795609 -3 0 -3 c
cl

gsave
0.173 0.627 0.173 setrgbcolor
fill
grestore
stroke
grestore
} bind def
60.4691 320.849 o
79.9944 319.907 o
99.5198 317.094 o
119.045 312.452 o
138.571 306.05 o
158.096 297.981 o
177.621 288.363 o
197.147 277.337 o
216.672 265.062 o
236.197 251.715 o
255.723 237.486 o
275.248 222.574 o
294.773 207.188 o
314.299 191.537 o
333.824 175.834 o
353.349 160.285 o
372.875 145.091 o
392.4 130.44 o
411.926 116.511 o
431.451 103.463 o
grestore
1.500 setlinewidth
2 setlinecap
0.000 setgray
gsave
408.08 306.92 41.92 27.88 clipbox
60.469091 91.437912 m
431.450909 91.437912 l
stroke
grestore
1.000 setlinewidth
0 setlinecap
0.839 0.153 0.157 setrgbcolor
gsave
408.08 306.92 41.92 27.88 clipbox
/o {
gsave
newpath
translate
1.0 setlinewidth
1 setlinejoin

0 setlinecap

0 -3 m
0.795609 -3 1.55874 -2.683901 2.12132 -2.12132 c
2.683901 -1.55874 3 -0.795609 3 0 c
3 0.795609 2.683901 1.55874 2.12132 2.12132 c
1.55874 2.683901 0.795609 3 0 3 c
-0.795609 3 -1.55874 2.683901 -2.12132 2.12132 c
-2.683901 1.55874 -3 0.795609 -3 0 c
-3 -0.795609 -2.683901 -1.55874 -2.12132 -2.12132 c
-1.55874 -2.683901 -0.795609 -3 0 -3 c
cl

gsave
0.839 0.153 0.157 setrgbcolor
fill
grestore
stroke
grestore
} bind def
60.4691 320.849 o
79.9944 320.811 o
99.5198 320.698 o
119.045 320.51 o
138.571 320.246 o
158.096 319.907 o
177.621 319.493 o
197.147 319.004 o
216.672 318.442 o
236.197 317.805 o
255.723 317.094 o
275.248 316.31 o
294.773 315.454 o
314.299 314.525 o
333.824 313.524 o
353.349 312.452 o
372.875 311.31 o
392.4 310.098 o
411.926 308.816 o
431.451 307.467 o
grestore
1.500 setlinewidth
2 setlinecap
0.000 setgray
gsave
408.08 306.92 41.92 27.88 clipbox
60.469091 91.437912 m
431.450909 91.437912 l
stroke
grestore
0.800 setlinewidth
0 setlinejoin
gsave
41.92 27.88 m
41.92 334.8 l
stroke
grestore
gsave
450 27.88 m
450 334.8 l
stroke
grestore
gsave
41.92 27.88 m
450 27.88 l
stroke
grestore
gsave
41.92 334.8 m
450 334.8 l
stroke
grestore
1.000 setlinewidth
0 setlinecap
0.800 setgray
gsave
367 139.84 m
443 139.84 l
444.333333 139.84 445 140.506667 445 141.84 c
445 220.84 l
445 222.173333 444.333333 222.84 443 222.84 c
367 222.84 l
365.666667 222.84 365 222.173333 365 220.84 c
365 141.84 l
365 140.506667 365.666667 139.84 367 139.84 c
cl
gsave
1.000 setgray
fill
grestore
stroke
grestore
1.500 setlinewidth
1 setlinejoin
[2.25 3.712] 0 setdash
0.000 setgray
gsave
379 209.84 m
379 214.6525 l
stroke
grestore
2 setlinecap
[] 0 setdash
gsave
369 209.84 m
389 209.84 l
stroke
grestore
1.000 setlinewidth
0 setlinecap
0.122 0.467 0.706 setrgbcolor
gsave
/o {
gsave
newpath
translate
1.0 setlinewidth
1 setlinejoin

0 setlinecap

0 -3 m
0.795609 -3 1.55874 -2.683901 2.12132 -2.12132 c
2.683901 -1.55874 3 -0.795609 3 0 c
3 0.795609 2.683901 1.55874 2.12132 2.12132 c
1.55874 2.683901 0.795609 3 0 3 c
-0.795609 3 -1.55874 2.683901 -2.12132 2.12132 c
-2.683901 1.55874 -3 0.795609 -3 0 c
-3 -0.795609 -2.683901 -1.55874 -2.12132 -2.12132 c
-1.55874 -2.683901 -0.795609 -3 0 -3 c
cl

gsave
0.122 0.467 0.706 setrgbcolor
fill
grestore
stroke
grestore
} bind def
379 214.652 o
grestore
0.000 setgray
gsave
397.000000 209.840000 translate
0.000000 rotate
/DejaVuSans-Oblique 7.0 selectfont
2.000000 5.171875 moveto
/tau glyphshow
0.000000 -3.060937 moveto
/T glyphshow
/DejaVuSans-Oblique 4.8999999999999995 selectfont
4.275879 -4.209375 moveto
/e glyphshow
/DejaVuSans 10.0 selectfont
10.680176 0.789062 moveto
/equal glyphshow
21.007324 0.789062 moveto
/zero glyphshow
27.369629 0.789062 moveto
/period glyphshow
30.048340 0.789062 moveto
/two glyphshow
0.0 2.671875 7.481933593749999 0.625 rectfill
grestore
1.500 setlinewidth
[2.25 3.712] 0 setdash
gsave
379 189.84 m
379 194.6525 l
stroke
grestore
2 setlinecap
[] 0 setdash
gsave
369 189.84 m
389 189.84 l
stroke
grestore
1.000 setlinewidth
0 setlinecap
1.000 0.498 0.055 setrgbcolor
gsave
/o {
gsave
newpath
translate
1.0 setlinewidth
1 setlinejoin

0 setlinecap

0 -3 m
0.795609 -3 1.55874 -2.683901 2.12132 -2.12132 c
2.683901 -1.55874 3 -0.795609 3 0 c
3 0.795609 2.683901 1.55874 2.12132 2.12132 c
1.55874 2.683901 0.795609 3 0 3 c
-0.795609 3 -1.55874 2.683901 -2.12132 2.12132 c
-2.683901 1.55874 -3 0.795609 -3 0 c
-3 -0.795609 -2.683901 -1.55874 -2.12132 -2.12132 c
-1.55874 -2.683901 -0.795609 -3 0 -3 c
cl

gsave
1.000 0.498 0.055 setrgbcolor
fill
grestore
stroke
grestore
} bind def
379 194.652 o
grestore
0.000 setgray
gsave
397.000000 189.840000 translate
0.000000 rotate
/DejaVuSans-Oblique 7.0 selectfont
2.000000 5.171875 moveto
/tau glyphshow
0.000000 -3.060937 moveto
/T glyphshow
/DejaVuSans-Oblique 4.8999999999999995 selectfont
4.275879 -4.209375 moveto
/e glyphshow
/DejaVuSans 10.0 selectfont
10.680176 0.789062 moveto
/equal glyphshow
21.007324 0.789062 moveto
/zero glyphshow
27.369629 0.789062 moveto
/period glyphshow
30.548340 0.789062 moveto
/one glyphshow
0.0 2.671875 7.481933593749999 0.625 rectfill
grestore
1.500 setlinewidth
[2.25 3.712] 0 setdash
gsave
379 169.84 m
379 174.6525 l
stroke
grestore
2 setlinecap
[] 0 setdash
gsave
369 169.84 m
389 169.84 l
stroke
grestore
1.000 setlinewidth
0 setlinecap
0.173 0.627 0.173 setrgbcolor
gsave
/o {
gsave
newpath
translate
1.0 setlinewidth
1 setlinejoin

0 setlinecap

0 -3 m
0.795609 -3 1.55874 -2.683901 2.12132 -2.12132 c
2.683901 -1.55874 3 -0.795609 3 0 c
3 0.795609 2.683901 1.55874 2.12132 2.12132 c
1.55874 2.683901 0.795609 3 0 3 c
-0.795609 3 -1.55874 2.683901 -2.12132 2.12132 c
-2.683901 1.55874 -3 0.795609 -3 0 c
-3 -0.795609 -2.683901 -1.55874 -2.12132 -2.12132 c
-1.55874 -2.683901 -0.795609 -3 0 -3 c
cl

gsave
0.173 0.627 0.173 setrgbcolor
fill
grestore
stroke
grestore
} bind def
379 174.652 o
grestore
0.000 setgray
gsave
397.000000 169.840000 translate
0.000000 rotate
/DejaVuSans-Oblique 7.0 selectfont
2.000000 5.171875 moveto
/tau glyphshow
0.000000 -3.060937 moveto
/T glyphshow
/DejaVuSans-Oblique 4.8999999999999995 selectfont
4.275879 -4.209375 moveto
/e glyphshow
/DejaVuSans 10.0 selectfont
10.680176 0.789062 moveto
/equal glyphshow
21.007324 0.789062 moveto
/zero glyphshow
27.369629 0.789062 moveto
/period glyphshow
30.548340 0.789062 moveto
/zero glyphshow
36.910645 0.789062 moveto
/five glyphshow
0.0 2.671875 7.481933593749999 0.625 rectfill
grestore
1.500 setlinewidth
[2.25 3.712] 0 setdash
gsave
379 149.84 m
379 154.6525 l
stroke
grestore
2 setlinecap
[] 0 setdash
gsave
369 149.84 m
389 149.84 l
stroke
grestore
1.000 setlinewidth
0 setlinecap
0.839 0.153 0.157 setrgbcolor
gsave
/o {
gsave
newpath
translate
1.0 setlinewidth
1 setlinejoin

0 setlinecap

0 -3 m
0.795609 -3 1.55874 -2.683901 2.12132 -2.12132 c
2.683901 -1.55874 3 -0.795609 3 0 c
3 0.795609 2.683901 1.55874 2.12132 2.12132 c
1.55874 2.683901 0.795609 3 0 3 c
-0.795609 3 -1.55874 2.683901 -2.12132 2.12132 c
-2.683901 1.55874 -3 0.795609 -3 0 c
-3 -0.795609 -2.683901 -1.55874 -2.12132 -2.12132 c
-1.55874 -2.683901 -0.795609 -3 0 -3 c
cl

gsave
0.839 0.153 0.157 setrgbcolor
fill
grestore
stroke
grestore
} bind def
379 154.652 o
grestore
0.000 setgray
gsave
397.000000 149.840000 translate
0.000000 rotate
/DejaVuSans-Oblique 7.0 selectfont
2.000000 5.171875 moveto
/tau glyphshow
0.000000 -3.060937 moveto
/T glyphshow
/DejaVuSans-Oblique 4.8999999999999995 selectfont
4.275879 -4.209375 moveto
/e glyphshow
/DejaVuSans 10.0 selectfont
10.680176 0.789062 moveto
/equal glyphshow
21.007324 0.789062 moveto
/zero glyphshow
27.369629 0.789062 moveto
/period glyphshow
30.548340 0.789062 moveto
/zero glyphshow
36.910645 0.789062 moveto
/one glyphshow
0.0 2.671875 7.481933593749999 0.625 rectfill
grestore

end
showpage
