%!PS-Adobe-3.0 EPSF-3.0
%%Creator: cairo 1.17.4 (https://cairographics.org)
%%CreationDate: Thu Sep 30 18:26:58 2021
%%Pages: 1
%%DocumentData: Clean7Bit
%%LanguageLevel: 2
%%BoundingBox: 219 180 357 258
%%EndComments
%%BeginProlog
50 dict begin
/q { gsave } bind def
/Q { grestore } bind def
/cm { 6 array astore concat } bind def
/w { setlinewidth } bind def
/J { setlinecap } bind def
/j { setlinejoin } bind def
/M { setmiterlimit } bind def
/d { setdash } bind def
/m { moveto } bind def
/l { lineto } bind def
/c { curveto } bind def
/h { closepath } bind def
/re { exch dup neg 3 1 roll 5 3 roll moveto 0 rlineto
      0 exch rlineto 0 rlineto closepath } bind def
/S { stroke } bind def
/f { fill } bind def
/f* { eofill } bind def
/n { newpath } bind def
/W { clip } bind def
/W* { eoclip } bind def
/BT { } bind def
/ET { } bind def
/BDC { mark 3 1 roll /BDC pdfmark } bind def
/EMC { mark /EMC pdfmark } bind def
/cairo_store_point { /cairo_point_y exch def /cairo_point_x exch def } def
/Tj { show currentpoint cairo_store_point } bind def
/TJ {
  {
    dup
    type /stringtype eq
    { show } { -0.001 mul 0 cairo_font_matrix dtransform rmoveto } ifelse
  } forall
  currentpoint cairo_store_point
} bind def
/cairo_selectfont { cairo_font_matrix aload pop pop pop 0 0 6 array astore
    cairo_font exch selectfont cairo_point_x cairo_point_y moveto } bind def
/Tf { pop /cairo_font exch def /cairo_font_matrix where
      { pop cairo_selectfont } if } bind def
/Td { matrix translate cairo_font_matrix matrix concatmatrix dup
      /cairo_font_matrix exch def dup 4 get exch 5 get cairo_store_point
      /cairo_font where { pop cairo_selectfont } if } bind def
/Tm { 2 copy 8 2 roll 6 array astore /cairo_font_matrix exch def
      cairo_store_point /cairo_font where { pop cairo_selectfont } if } bind def
/g { setgray } bind def
/rg { setrgbcolor } bind def
/d1 { setcachedevice } bind def
/cairo_data_source {
  CairoDataIndex CairoData length lt
    { CairoData CairoDataIndex get /CairoDataIndex CairoDataIndex 1 add def }
    { () } ifelse
} def
/cairo_flush_ascii85_file { cairo_ascii85_file status { cairo_ascii85_file flushfile } if } def
/cairo_image { image cairo_flush_ascii85_file } def
/cairo_imagemask { imagemask cairo_flush_ascii85_file } def
%%EndProlog
%%BeginSetup
%%EndSetup
%%Page: 1 1
%%BeginPageSetup
%%PageBoundingBox: 219 180 357 258
%%EndPageSetup
q 219 180 138 78 rectclip
1 0 0 -1 0 420 cm q
0 g
0.75 w
1 J
1 j
[] 0.0 d
4 M q 0 -1 1 0 0 0 cm
-228.465 306.008 m -216.84 306.008 l -215.34 308.258 l -213.09 303.758 
l -210.84 308.258 l -208.59 303.758 l -206.34 308.258 l -204.09 303.758 
l -202.59 306.008 l -190.965 306.008 l S Q
297.75 209.844 m 297.617 209.809 297.566 209.789 297.551 209.688 c 297.539
 209.637 297.539 209.461 297.539 209.352 c 297.539 208.961 297.539 208.348
 298.086 208.348 c 298.273 208.348 298.656 208.434 298.871 208.648 c 299.008
 208.797 299.191 209.082 299.191 209.582 c 299.191 210.195 l h
299.262 209.047 m 299.141 208.484 298.75 207.84 298.199 207.84 c 297.723
 207.84 297.367 208.332 297.367 209.055 c 297.367 210.621 l 297.367 210.734
 297.367 210.785 297.48 210.785 c 297.539 210.785 297.539 210.734 297.539
 210.629 c 297.539 210.621 297.539 210.516 297.551 210.422 c 297.566 210.316
 297.566 210.273 297.645 210.273 c 297.66 210.273 297.68 210.273 297.75 
210.293 c 300.703 211.035 l 300.918 211.086 300.961 211.094 300.961 211.535
 c 300.961 211.633 300.961 211.684 301.074 211.684 c 301.137 211.684 301.137
 211.613 301.137 211.605 c 301.137 211.449 301.117 211.062 301.117 210.914
 c 301.117 210.758 301.137 210.359 301.137 210.207 c 301.137 210.164 301.137
 210.102 301.023 210.102 c 300.961 210.102 300.961 210.145 300.961 210.258
 c 300.961 210.457 300.961 210.613 300.867 210.613 c 300.832 210.613 300.809
 210.602 300.773 210.594 c 299.312 210.23 l 299.312 209.574 l 299.312 209.074
 299.625 208.98 299.812 208.98 c 299.891 208.98 300.062 209.023 300.195 
209.055 c 300.348 209.09 300.547 209.145 300.66 209.145 c 301.258 209.145
 301.258 208.477 301.258 208.41 c 301.258 207.941 300.703 207.742 300.625
 207.742 c 300.555 207.742 300.555 207.805 300.555 207.812 c 300.555 207.863
 300.59 207.871 300.633 207.883 c 301.039 208.02 301.137 208.262 301.137
 208.383 c 301.137 208.562 301.016 208.605 300.797 208.605 c 300.625 208.605
 300.348 208.574 300.168 208.547 c 300.09 208.539 299.984 208.531 299.91
 208.531 c 299.484 208.531 299.312 208.902 299.262 209.047 c h
299.262 209.047 m f
q 1 0 0 1 0 0 cm
279.758 190.965 m 268.508 190.965 l S Q
q 1 0 0 1 0 0 cm
294.758 190.965 m 306.008 190.965 l S Q
q 1 0 0 1 0 0 cm
279.758 190.965 m 294.758 184.965 l S Q
1 g
295.656 190.965 m 295.656 191.461 295.254 191.863 294.758 191.863 c 294.258
 191.863 293.855 191.461 293.855 190.965 c 293.855 190.465 294.258 190.062
 294.758 190.062 c 295.254 190.062 295.656 190.465 295.656 190.965 c h
295.656 190.965 m f
0 g
0.525 w
q 1 0 0 1 0 0 cm
295.656 190.965 m 295.656 191.461 295.254 191.863 294.758 191.863 c 294.258
 191.863 293.855 191.461 293.855 190.965 c 293.855 190.465 294.258 190.062
 294.758 190.062 c 295.254 190.062 295.656 190.465 295.656 190.965 c h
295.656 190.965 m S Q
1 g
280.656 190.965 m 280.656 191.461 280.254 191.863 279.758 191.863 c 279.258
 191.863 278.855 191.461 278.855 190.965 c 278.855 190.465 279.258 190.062
 279.758 190.062 c 280.254 190.062 280.656 190.465 280.656 190.965 c h
280.656 190.965 m f
0 g
q 1 0 0 1 0 0 cm
280.656 190.965 m 280.656 191.461 280.254 191.863 279.758 191.863 c 279.258
 191.863 278.855 191.461 278.855 190.965 c 278.855 190.465 279.258 190.062
 279.758 190.062 c 280.254 190.062 280.656 190.465 280.656 190.965 c h
280.656 190.965 m S Q
0.75 w
q 1 0 0 1 0 0 cm
337.883 183.465 m 311.633 198.465 l 311.633 168.465 l 337.883 183.465 l
 S Q
q 1 0 0 1 0 0 cm
311.633 190.965 m 306.008 190.965 l S Q
q 1 0 0 1 0 0 cm
311.633 175.965 m 306.008 175.965 l S Q
q 1 0 0 1 0 0 cm
337.883 183.465 m 343.508 183.465 l S Q
0.525 w
q 1 0 0 1 0 0 cm
316.133 190.965 m 313.883 190.965 l S Q
q 1 0 0 1 0 0 cm
315.008 192.09 m 315.008 189.84 l S Q
q 1 0 0 1 0 0 cm
316.133 175.965 m 313.883 175.965 l S Q
0.75 w
q 1 0 0 1 0 0 cm
262.883 190.965 m 236.633 205.965 l 236.633 175.965 l 262.883 190.965 l
 S Q
q 1 0 0 1 0 0 cm
236.633 198.465 m 231.008 198.465 l S Q
q 1 0 0 1 0 0 cm
236.633 183.465 m 231.008 183.465 l S Q
q 1 0 0 1 0 0 cm
262.883 190.965 m 268.508 190.965 l S Q
0.525 w
q 1 0 0 1 0 0 cm
241.133 198.465 m 238.883 198.465 l S Q
q 1 0 0 1 0 0 cm
240.008 199.59 m 240.008 197.34 l S Q
q 1 0 0 1 0 0 cm
241.133 183.465 m 238.883 183.465 l S Q
0.75 w
q 1 0 0 1 0 0 cm
306.008 228.465 m 306.008 235.965 l S Q
q 1 0 0 1 0 0 cm
311.258 235.965 m 300.758 235.965 l S Q
q 1 0 0 1 0 0 cm
308.633 237.465 m 303.383 237.465 l S Q
q 1 0 0 1 0 0 cm
306.758 238.965 m 305.258 238.965 l S Q
223.508 197.715 m 223.922 197.715 224.258 198.051 224.258 198.465 c 224.258
 198.879 223.922 199.215 223.508 199.215 c 223.094 199.215 222.758 198.879
 222.758 198.465 c 222.758 198.051 223.094 197.715 223.508 197.715 c h
223.508 197.715 m f
0.525 w
q 0 -1 1 0 0 0 cm
-197.715 223.508 m -197.715 223.922 -198.051 224.258 -198.465 224.258 c
 -198.879 224.258 -199.215 223.922 -199.215 223.508 c -199.215 223.094 -198.879
 222.758 -198.465 222.758 c -198.051 222.758 -197.715 223.094 -197.715 223.508
 c h
-197.715 223.508 m S Q
0.75 w
q 0 -1 1 0 0 0 cm
-198.465 223.508 m -198.465 231.008 l S Q
220.828 192.914 m 220.863 192.773 220.992 192.266 221.375 192.266 c 221.398
 192.266 221.539 192.266 221.648 192.336 c 221.496 192.367 221.391 192.5
 221.391 192.637 c 221.391 192.723 221.453 192.828 221.598 192.828 c 221.719
 192.828 221.891 192.73 221.891 192.508 c 221.891 192.223 221.574 192.145
 221.383 192.145 c 221.062 192.145 220.871 192.438 220.805 192.559 c 220.664
 192.195 220.371 192.145 220.207 192.145 c 219.637 192.145 219.316 192.852
 219.316 192.992 c 219.316 193.051 219.379 193.051 219.387 193.051 c 219.43
 193.051 219.445 193.035 219.457 192.992 c 219.645 192.402 220.008 192.266
 220.199 192.266 c 220.301 192.266 220.492 192.316 220.492 192.637 c 220.492
 192.809 220.398 193.172 220.199 193.949 c 220.113 194.285 219.914 194.52
 219.672 194.52 c 219.637 194.52 219.516 194.52 219.395 194.449 c 219.535
 194.418 219.652 194.305 219.652 194.148 c 219.652 194 219.535 193.957 219.457
 193.957 c 219.281 193.957 219.152 194.098 219.152 194.277 c 219.152 194.527
 219.422 194.641 219.664 194.641 c 220.035 194.641 220.234 194.254 220.242
 194.227 c 220.312 194.426 220.508 194.641 220.84 194.641 c 221.41 194.641
 221.719 193.934 221.719 193.793 c 221.719 193.734 221.676 193.734 221.66
 193.734 c 221.605 193.734 221.598 193.762 221.582 193.793 c 221.398 194.391
 221.027 194.52 220.855 194.52 c 220.641 194.52 220.555 194.348 220.555 
194.156 c 220.555 194.035 220.578 193.914 220.641 193.672 c h
220.828 192.914 m f
223.961 195.902 m 223.961 195.887 223.961 195.875 223.867 195.781 c 223.184
 195.09 223 194.047 223 193.199 c 223 192.238 223.211 191.281 223.891 190.598
 c 223.961 190.527 223.961 190.52 223.961 190.504 c 223.961 190.461 223.945
 190.441 223.91 190.441 c 223.848 190.441 223.355 190.82 223.027 191.523
 c 222.75 192.125 222.684 192.738 222.684 193.199 c 222.684 193.629 222.742
 194.297 223.043 194.926 c 223.383 195.602 223.848 195.965 223.91 195.965
 c 223.945 195.965 223.961 195.945 223.961 195.902 c h
223.961 195.902 m f
225.414 192.379 m 225.93 192.379 l 226.043 192.379 226.105 192.379 226.105
 192.266 c 226.105 192.203 226.043 192.203 225.949 192.203 c 225.465 192.203
 l 225.664 191.418 225.688 191.316 225.688 191.281 c 225.688 191.184 225.621
 191.133 225.523 191.133 c 225.508 191.133 225.352 191.133 225.309 191.332
 c 225.094 192.203 l 224.574 192.203 l 224.461 192.203 224.41 192.203 224.41
 192.309 c 224.41 192.379 224.453 192.379 224.566 192.379 c 225.051 192.379
 l 224.652 193.941 224.625 194.035 224.625 194.133 c 224.625 194.434 224.832
 194.641 225.137 194.641 c 225.699 194.641 226.008 193.836 226.008 193.793
 c 226.008 193.734 225.965 193.734 225.949 193.734 c 225.895 193.734 225.887
 193.75 225.863 193.812 c 225.629 194.391 225.336 194.52 225.145 194.52 
c 225.031 194.52 224.973 194.449 224.973 194.27 c 224.973 194.133 224.988
 194.098 225.008 194 c h
225.414 192.379 m f
227.859 193.199 m 227.859 192.773 227.801 192.109 227.496 191.48 c 227.168
 190.805 226.691 190.441 226.641 190.441 c 226.605 190.441 226.582 190.469
 226.582 190.504 c 226.582 190.52 226.582 190.527 226.684 190.633 c 227.23
 191.176 227.539 192.051 227.539 193.199 c 227.539 194.148 227.34 195.117
 226.66 195.809 c 226.582 195.875 226.582 195.887 226.582 195.902 c 226.582
 195.938 226.605 195.965 226.641 195.965 c 226.691 195.965 227.195 195.582
 227.516 194.883 c 227.801 194.277 227.859 193.664 227.859 193.199 c h
227.859 193.199 m f
351.008 184.215 m 350.594 184.215 350.258 183.879 350.258 183.465 c 350.258
 183.051 350.594 182.715 351.008 182.715 c 351.422 182.715 351.758 183.051
 351.758 183.465 c 351.758 183.879 351.422 184.215 351.008 184.215 c h
351.008 184.215 m f
0.525 w
q 0 1 -1 0 0 0 cm
184.215 -351.008 m 184.215 -350.594 183.879 -350.258 183.465 -350.258 c
 183.051 -350.258 182.715 -350.594 182.715 -351.008 c 182.715 -351.422 183.051
 -351.758 183.465 -351.758 c 183.879 -351.758 184.215 -351.422 184.215 -351.008
 c h
184.215 -351.008 m S Q
0.75 w
q 0 1 -1 0 0 0 cm
183.465 -351.008 m 183.465 -343.508 l S Q
347.062 177.914 m 347.098 177.773 347.227 177.266 347.605 177.266 c 347.633
 177.266 347.77 177.266 347.883 177.336 c 347.727 177.367 347.625 177.5 
347.625 177.637 c 347.625 177.723 347.684 177.828 347.832 177.828 c 347.953
 177.828 348.125 177.73 348.125 177.508 c 348.125 177.223 347.805 177.145
 347.617 177.145 c 347.297 177.145 347.105 177.438 347.035 177.559 c 346.898
 177.195 346.605 177.145 346.441 177.145 c 345.871 177.145 345.551 177.852
 345.551 177.992 c 345.551 178.051 345.613 178.051 345.621 178.051 c 345.664
 178.051 345.68 178.035 345.688 177.992 c 345.879 177.402 346.242 177.266
 346.434 177.266 c 346.535 177.266 346.727 177.316 346.727 177.637 c 346.727
 177.809 346.633 178.172 346.434 178.949 c 346.348 179.285 346.148 179.52
 345.906 179.52 c 345.871 179.52 345.75 179.52 345.629 179.449 c 345.766
 179.418 345.887 179.305 345.887 179.148 c 345.887 179 345.766 178.957 345.688
 178.957 c 345.516 178.957 345.387 179.098 345.387 179.277 c 345.387 179.527
 345.656 179.641 345.895 179.641 c 346.27 179.641 346.465 179.254 346.477
 179.227 c 346.543 179.426 346.742 179.641 347.07 179.641 c 347.641 179.641
 347.953 178.934 347.953 178.793 c 347.953 178.734 347.91 178.734 347.891
 178.734 c 347.84 178.734 347.832 178.762 347.816 178.793 c 347.633 179.391
 347.262 179.52 347.09 179.52 c 346.871 179.52 346.785 179.348 346.785 179.156
 c 346.785 179.035 346.812 178.914 346.871 178.672 c h
347.062 177.914 m f
349.617 176.621 m 349.934 176.484 350.074 176.434 350.168 176.379 c 350.246
 176.355 350.281 176.336 350.281 176.258 c 350.281 176.199 350.23 176.137
 350.16 176.137 c 350.133 176.137 350.125 176.137 350.082 176.172 c 349.555
 176.527 l 349.617 175.957 l 349.625 175.887 349.617 175.793 349.496 175.793
 c 349.453 175.793 349.375 175.816 349.375 175.906 c 349.375 175.938 349.391
 176.051 349.398 176.094 c 349.406 176.156 349.434 176.441 349.441 176.527
 c 348.914 176.172 l 348.883 176.156 348.871 176.137 348.836 176.137 c 348.762
 176.137 348.719 176.199 348.719 176.258 c 348.719 176.336 348.762 176.363
 348.793 176.371 c 349.375 176.621 l 349.062 176.762 348.914 176.812 348.82
 176.855 c 348.75 176.891 348.719 176.906 348.719 176.977 c 348.719 177.047
 348.762 177.098 348.836 177.098 c 348.863 177.098 348.871 177.098 348.914
 177.062 c 349.441 176.719 l 349.375 177.332 l 349.375 177.418 349.453 177.453
 349.496 177.453 c 349.547 177.453 349.617 177.418 349.617 177.332 c 349.617
 177.297 349.598 177.184 349.598 177.148 c 349.59 177.078 349.562 176.805
 349.555 176.719 c 350.012 177.02 l 350.117 177.098 350.125 177.098 350.16
 177.098 c 350.23 177.098 350.281 177.047 350.281 176.977 c 350.281 176.898
 350.23 176.883 350.195 176.863 c h
349.617 176.621 m f
352.727 180.902 m 352.727 180.887 352.727 180.875 352.633 180.781 c 351.949
 180.09 351.77 179.047 351.77 178.199 c 351.77 177.238 351.977 176.281 352.656
 175.598 c 352.727 175.527 352.727 175.52 352.727 175.504 c 352.727 175.461
 352.711 175.441 352.676 175.441 c 352.613 175.441 352.121 175.82 351.793
 176.523 c 351.516 177.125 351.449 177.738 351.449 178.199 c 351.449 178.629
 351.508 179.297 351.812 179.926 c 352.148 180.602 352.613 180.965 352.676
 180.965 c 352.711 180.965 352.727 180.945 352.727 180.902 c h
352.727 180.902 m f
354.18 177.379 m 354.695 177.379 l 354.809 177.379 354.871 177.379 354.871
 177.266 c 354.871 177.203 354.809 177.203 354.715 177.203 c 354.23 177.203
 l 354.43 176.418 354.457 176.316 354.457 176.281 c 354.457 176.184 354.387
 176.133 354.293 176.133 c 354.273 176.133 354.117 176.133 354.074 176.332
 c 353.859 177.203 l 353.34 177.203 l 353.227 177.203 353.176 177.203 353.176
 177.309 c 353.176 177.379 353.219 177.379 353.332 177.379 c 353.816 177.379
 l 353.418 178.941 353.391 179.035 353.391 179.133 c 353.391 179.434 353.602
 179.641 353.902 179.641 c 354.465 179.641 354.773 178.836 354.773 178.793
 c 354.773 178.734 354.73 178.734 354.715 178.734 c 354.664 178.734 354.652
 178.75 354.629 178.812 c 354.395 179.391 354.102 179.52 353.91 179.52 c
 353.797 179.52 353.738 179.449 353.738 179.27 c 353.738 179.133 353.754
 179.098 353.773 179 c h
354.18 177.379 m f
356.625 178.199 m 356.625 177.773 356.566 177.109 356.262 176.48 c 355.934
 175.805 355.461 175.441 355.406 175.441 c 355.371 175.441 355.348 175.469
 355.348 175.504 c 355.348 175.52 355.348 175.527 355.449 175.633 c 355.996
 176.176 356.305 177.051 356.305 178.199 c 356.305 179.148 356.105 180.117
 355.426 180.809 c 355.348 180.875 355.348 180.887 355.348 180.902 c 355.348
 180.938 355.371 180.965 355.406 180.965 c 355.461 180.965 355.961 180.582
 356.281 179.883 c 356.566 179.277 356.625 178.664 356.625 178.199 c h
356.625 178.199 m f
0 J
0 j
q 1 0 0 1 0 0 cm
231.008 183.465 m 231.105 168.246 l 268.352 168.102 l 268.508 190.965 l
 S Q
q 1 0 0 1 0 0 cm
343.508 183.465 m 343.309 162.664 l 305.867 162.559 l 306.008 175.965 l
 S Q
Q Q
showpage
%%Trailer
end
%%EOF
